0	772	1
0	152	1
1	1105	1
1	545	1
1	680	1
2	1215	1
2	1176	1
3	259	1
3	905	1
3	826	1
3	764	1
3	1077	1
3	1370	1
3	919	1
3	805	1
3	846	1
4	593	1
4	1091	1
5	556	1
5	1023	1
6	937	1
6	1160	1
6	1080	1
6	473	1
6	474	1
7	454	1
7	800	1
7	1053	1
8	1380	1
8	731	1
9	1064	1
9	128	1
9	984	1
9	202	1
9	1106	1
9	273	1
9	87	1
9	554	1
9	791	1
9	986	1
9	62	1
9	563	1
9	47	1
9	169	1
9	160	1
9	124	1
9	480	1
9	1295	1
9	1172	1
9	1036	1
9	1049	1
9	116	1
9	996	1
9	989	1
9	192	1
9	1029	1
9	1140	1
10	61	1
10	663	1
10	832	1
10	900	1
10	1034	1
10	506	1
10	82	1
10	176	1
11	157	1
11	355	1
12	726	1
12	1235	1
12	921	1
12	741	1
12	1250	1
13	1019	1
13	203	1
13	296	1
13	816	1
13	29	1
13	819	1
13	746	1
13	1193	1
13	1194	1
13	1003	1
13	463	1
13	84	1
14	974	1
14	878	1
14	371	1
14	751	1
14	799	1
14	288	1
14	530	1
15	938	1
15	327	1
15	1011	1
16	925	1
16	1118	1
17	221	1
17	567	1
17	879	1
18	256	1
18	1180	1
18	91	1
18	924	1
18	847	1
18	111	1
18	567	1
18	676	1
18	493	1
18	496	1
18	759	1
18	450	1
18	100	1
18	1139	1
19	156	1
19	545	1
19	957	1
19	958	1
19	321	1
19	1042	1
20	68	1
20	570	1
20	959	1
20	936	1
20	518	1
21	154	1
21	221	1
21	742	1
21	1346	1
21	955	1
21	1015	1
21	453	1
21	1277	1
21	1416	1
21	686	1
21	956	1
21	1337	1
21	910	1
21	115	1
21	620	1
21	722	1
21	823	1
21	344	1
21	1271	1
22	1007	1
22	1028	1
23	367	1
23	543	1
23	618	1
23	350	1
23	556	1
23	1001	1
23	132	1
23	559	1
23	782	1
24	1228	1
24	99	1
24	761	1
24	1030	1
25	906	1
25	705	1
25	971	1
26	714	1
26	593	1
26	781	1
26	660	1
26	117	1
27	1085	1
27	514	1
27	565	1
28	764	1
28	1098	1
29	444	1
29	1003	1
29	1500	1
29	809	1
29	77	1
29	153	1
30	930	1
30	984	1
30	93	1
30	394	1
30	421	1
30	1277	1
30	941	1
30	556	1
30	485	1
30	841	1
30	1036	1
30	191	1
30	487	1
30	621	1
30	383	1
30	67	1
30	1012	1
30	991	1
31	91	1
31	561	1
31	493	1
31	1098	1
32	1212	1
32	220	1
33	984	1
33	1120	1
33	1009	1
33	1256	1
33	920	1
33	311	1
34	79	1
34	95	1
34	1268	1
34	81	1
34	1087	1
34	438	1
34	863	1
34	517	1
34	782	1
34	1323	1
34	881	1
34	1082	1
34	171	1
34	234	1
35	1121	1
35	1091	1
35	953	1
36	541	1
36	527	1
37	1010	1
37	870	1
38	644	1
38	665	1
38	1327	1
38	919	1
39	769	1
39	1463	1
40	107	1
40	642	1
40	429	1
41	333	1
41	1138	1
41	416	1
41	300	1
41	1354	1
41	519	1
42	844	1
42	1097	1
43	902	1
43	277	1
44	1087	1
44	1370	1
45	1129	1
45	334	1
45	679	1
45	1296	1
46	1213	1
46	1469	1
47	568	1
47	469	1
47	1163	1
47	572	1
47	451	1
48	1106	1
48	825	1
48	1188	1
49	1212	1
49	885	1
49	723	1
50	998	1
50	97	1
50	302	1
50	652	1
51	866	1
51	65	1
52	331	1
52	923	1
52	615	1
52	1206	1
52	648	1
52	269	1
52	537	1
52	1116	1
52	540	1
53	1488	1
53	631	1
53	1273	1
53	633	1
53	341	1
54	937	1
54	1160	1
54	454	1
54	310	1
54	473	1
55	1099	1
55	533	1
55	1085	1
56	866	1
56	773	1
57	896	1
57	1416	1
57	122	1
57	583	1
57	1428	1
57	1372	1
57	547	1
57	709	1
57	1271	1
58	247	1
58	65	1
59	104	1
59	1370	1
59	1323	1
59	384	1
60	221	1
60	1246	1
60	1256	1
60	345	1
60	709	1
61	105	1
61	140	1
61	868	1
62	1385	1
62	1057	1
62	88	1
62	184	1
63	95	1
63	583	1
64	205	1
64	655	1
64	1059	1
64	1448	1
64	1043	1
64	954	1
65	877	1
66	95	1
66	617	1
67	984	1
67	893	1
67	104	1
67	470	1
67	722	1
67	488	1
67	812	1
67	530	1
67	315	1
68	592	1
69	1430	1
69	653	1
69	1213	1
69	202	1
69	945	1
69	1183	1
69	70	1
69	624	1
69	205	1
69	1084	1
69	379	1
69	1295	1
69	217	1
69	1469	1
69	718	1
69	739	1
69	844	1
69	672	1
70	527	1
70	1215	1
70	423	1
70	1188	1
71	317	1
71	683	1
71	987	1
71	730	1
72	1272	1
72	257	1
72	1031	1
72	816	1
72	1076	1
72	1077	1
72	746	1
72	805	1
72	176	1
73	127	1
73	1291	1
73	202	1
73	378	1
73	403	1
73	906	1
73	88	1
73	976	1
73	988	1
73	1029	1
73	246	1
73	1018	1
73	1300	1
74	437	1
74	1165	1
75	157	1
75	801	1
76	1105	1
76	521	1
76	544	1
76	199	1
76	366	1
76	442	1
77	879	1
77	809	1
78	172	1
78	961	1
78	838	1
78	1274	1
78	826	1
78	433	1
78	361	1
78	888	1
78	909	1
78	979	1
78	875	1
78	1296	1
78	1028	1
78	1298	1
78	302	1
79	367	1
79	197	1
79	584	1
79	1178	1
79	782	1
80	104	1
80	870	1
80	671	1
81	959	1
82	173	1
83	497	1
83	639	1
84	1003	1
85	328	1
85	1352	1
86	244	1
86	152	1
87	1276	1
88	1189	1
88	984	1
88	1067	1
88	129	1
88	453	1
88	389	1
88	486	1
88	1110	1
88	1323	1
88	192	1
88	856	1
89	1283	1
89	1130	1
89	207	1
89	1193	1
90	1065	1
90	452	1
90	437	1
90	1165	1
91	256	1
91	1180	1
91	103	1
91	1303	1
91	867	1
91	450	1
91	759	1
91	496	1
91	100	1
91	928	1
91	1017	1
91	377	1
92	998	1
92	1364	1
93	984	1
93	893	1
93	914	1
93	484	1
93	1237	1
93	99	1
94	501	1
94	788	1
94	907	1
94	753	1
95	367	1
95	710	1
95	955	1
95	543	1
95	194	1
95	792	1
95	229	1
95	610	1
95	1279	1
95	150	1
95	223	1
95	995	1
95	780	1
95	480	1
95	1079	1
95	438	1
95	391	1
95	863	1
95	1297	1
95	100	1
95	441	1
95	880	1
95	330	1
95	551	1
96	1046	1
96	450	1
97	1105	1
97	1302	1
97	866	1
97	521	1
97	994	1
97	861	1
97	680	1
97	546	1
97	1026	1
97	796	1
98	336	1
98	864	1
98	271	1
99	742	1
99	803	1
99	1228	1
100	1098	1
101	711	1
101	516	1
102	1054	1
102	576	1
102	1108	1
102	728	1
102	700	1
102	783	1
103	493	1
103	288	1
103	1098	1
104	857	1
104	1301	1
104	802	1
104	984	1
104	972	1
104	533	1
104	554	1
104	577	1
104	476	1
104	1305	1
104	1033	1
104	470	1
104	556	1
104	609	1
104	1171	1
104	113	1
104	564	1
104	902	1
104	196	1
104	1036	1
104	198	1
104	843	1
104	612	1
104	1102	1
104	440	1
104	807	1
104	427	1
104	488	1
104	530	1
104	812	1
104	1260	1
104	1147	1
104	1299	1
104	1017	1
104	410	1
104	315	1
105	360	1
106	1189	1
106	388	1
106	461	1
106	344	1
106	235	1
107	456	1
107	591	1
107	793	1
107	1095	1
107	429	1
108	1081	1
108	903	1
109	850	1
109	637	1
110	332	1
110	186	1
110	766	1
110	593	1
110	415	1
110	190	1
110	889	1
111	886	1
111	494	1
111	1118	1
112	1292	1
112	529	1
113	533	1
113	748	1
113	438	1
113	1177	1
113	407	1
113	1194	1
113	628	1
113	418	1
114	274	1
114	1146	1
114	1111	1
114	509	1
115	154	1
115	956	1
115	620	1
115	596	1
116	502	1
116	472	1
116	1221	1
117	1055	1
117	405	1
117	864	1
118	221	1
118	316	1
118	955	1
118	1294	1
118	583	1
118	1256	1
118	952	1
118	1139	1
118	1221	1
119	850	1
119	1193	1
119	637	1
120	906	1
120	1379	1
120	705	1
120	971	1
121	237	1
121	325	1
121	909	1
121	995	1
122	775	1
122	358	1
122	525	1
122	695	1
122	1304	1
122	917	1
122	995	1
122	1193	1
122	392	1
122	1259	1
122	1323	1
123	1105	1
123	1023	1
123	425	1
124	322	1
125	497	1
125	562	1
125	233	1
126	684	1
126	1492	1
126	1184	1
127	201	1
127	401	1
127	984	1
127	1067	1
127	453	1
127	389	1
127	192	1
127	891	1
127	1154	1
128	1141	1
128	860	1
128	567	1
128	1123	1
128	804	1
128	240	1
128	1133	1
129	1031	1
129	1074	1
129	387	1
130	1156	1
130	1158	1
130	396	1
130	1088	1
130	375	1
131	1105	1
131	680	1
131	1505	1
132	556	1
132	618	1
132	559	1
133	726	1
133	1235	1
134	1308	1
134	288	1
134	855	1
135	533	1
135	1157	1
135	249	1
135	657	1
135	970	1
136	678	1
136	1515	1
136	539	1
137	948	1
137	530	1
138	770	1
138	1309	1
138	1043	1
139	643	1
139	1044	1
139	946	1
139	1045	1
139	231	1
140	857	1
140	1064	1
140	678	1
140	1306	1
140	868	1
140	1339	1
140	1331	1
140	738	1
140	778	1
141	850	1
141	1070	1
141	637	1
142	567	1
142	250	1
142	1307	1
142	782	1
142	530	1
143	1153	1
143	824	1
144	1291	1
144	147	1
144	1318	1
144	716	1
144	1310	1
144	1029	1
144	762	1
145	932	1
145	720	1
145	211	1
145	1053	1
146	1106	1
146	986	1
147	1262	1
147	1293	1
147	1318	1
147	1310	1
147	1333	1
147	177	1
147	762	1
148	779	1
148	1203	1
148	860	1
148	1057	1
148	312	1
149	338	1
149	1148	1
150	857	1
151	678	1
151	1339	1
151	1361	1
152	663	1
152	295	1
152	666	1
152	1138	1
152	863	1
152	244	1
152	209	1
152	1270	1
153	444	1
153	1314	1
154	221	1
154	1346	1
154	955	1
154	1015	1
154	1416	1
154	1337	1
154	620	1
154	722	1
154	891	1
154	1271	1
155	839	1
155	1337	1
155	225	1
156	678	1
156	942	1
156	611	1
156	1339	1
156	1519	1
157	801	1
158	367	1
158	815	1
158	170	1
158	330	1
159	1031	1
159	1074	1
159	791	1
159	975	1
160	1347	1
161	992	1
161	1293	1
161	598	1
161	1317	1
161	191	1
161	760	1
161	177	1
161	971	1
161	895	1
162	456	1
162	386	1
162	1119	1
162	1236	1
162	1090	1
162	659	1
162	1049	1
162	996	1
162	943	1
162	880	1
163	769	1
163	1463	1
163	1079	1
163	1323	1
164	847	1
164	567	1
164	997	1
165	728	1
165	1155	1
166	1085	1
166	514	1
166	565	1
167	1023	1
167	292	1
168	693	1
168	253	1
168	306	1
168	1085	1
168	470	1
168	169	1
168	853	1
168	279	1
168	890	1
168	1186	1
168	682	1
169	815	1
169	998	1
169	1316	1
169	899	1
169	1416	1
169	952	1
169	176	1
169	506	1
169	723	1
169	1139	1
170	710	1
170	1071	1
170	313	1
170	880	1
171	815	1
171	952	1
171	782	1
172	883	1
172	1324	1
172	1291	1
172	541	1
172	945	1
172	1106	1
172	1175	1
172	737	1
172	641	1
172	342	1
172	1063	1
173	869	1
173	723	1
173	383	1
173	913	1
174	1167	1
174	285	1
174	1041	1
174	919	1
174	1311	1
175	871	1
175	964	1
175	1319	1
175	391	1
176	1251	1
176	296	1
176	816	1
177	1430	1
177	357	1
177	202	1
177	1328	1
177	1150	1
177	908	1
177	1090	1
177	919	1
177	1330	1
177	223	1
177	952	1
177	1240	1
177	989	1
177	1038	1
177	1118	1
178	714	1
178	1320	1
178	922	1
179	597	1
179	382	1
180	721	1
180	797	1
180	904	1
180	318	1
180	736	1
180	678	1
180	1321	1
180	806	1
180	376	1
180	294	1
180	1039	1
181	1345	1
181	1475	1
181	906	1
181	326	1
181	719	1
182	226	1
182	914	1
182	388	1
182	678	1
182	1457	1
182	909	1
182	1339	1
182	635	1
182	600	1
182	1241	1
182	1364	1
182	1164	1
183	1291	1
183	527	1
184	779	1
184	401	1
184	453	1
184	1113	1
184	486	1
184	312	1
185	302	1
185	210	1
186	766	1
186	889	1
187	987	1
187	471	1
188	798	1
188	431	1
189	461	1
189	462	1
190	766	1
190	889	1
191	896	1
191	201	1
191	742	1
191	893	1
191	1337	1
191	952	1
191	910	1
191	1334	1
192	1067	1
192	1027	1
192	389	1
193	1066	1
193	1325	1
193	283	1
193	521	1
193	571	1
193	1340	1
193	1343	1
193	1312	1
194	257	1
194	258	1
194	805	1
194	795	1
195	776	1
195	736	1
195	1039	1
196	1315	1
196	1124	1
196	959	1
196	440	1
196	630	1
196	1299	1
197	1020	1
197	1252	1
197	1149	1
197	632	1
197	627	1
197	584	1
197	1322	1
197	1323	1
198	1313	1
198	1291	1
198	1157	1
198	306	1
198	453	1
198	713	1
198	1090	1
198	1228	1
198	1258	1
198	1071	1
198	1117	1
199	675	1
199	308	1
199	851	1
199	504	1
199	366	1
199	1299	1
199	983	1
200	1181	1
200	1193	1
201	598	1
201	1130	1
201	351	1
201	207	1
202	653	1
202	1213	1
202	624	1
202	1293	1
202	1058	1
202	1255	1
202	1215	1
202	266	1
202	389	1
202	217	1
202	1469	1
202	718	1
202	1448	1
202	739	1
202	879	1
202	760	1
202	988	1
202	246	1
202	551	1
203	1194	1
203	1003	1
204	1510	1
204	897	1
204	1336	1
204	989	1
204	409	1
204	1103	1
205	456	1
205	655	1
205	1295	1
205	718	1
205	1043	1
205	1242	1
205	304	1
206	396	1
206	579	1
206	251	1
207	1130	1
207	311	1
207	302	1
208	1328	1
208	337	1
208	789	1
208	1199	1
208	828	1
208	1050	1
208	281	1
208	224	1
209	1040	1
209	275	1
209	1288	1
209	1519	1
209	1321	1
209	1127	1
210	1134	1
210	1325	1
210	295	1
210	925	1
210	885	1
210	1427	1
210	642	1
211	697	1
211	720	1
211	1053	1
212	1024	1
212	865	1
213	1104	1
213	593	1
214	992	1
214	1193	1
215	678	1
215	1339	1
216	1328	1
216	337	1
216	1050	1
216	1199	1
216	281	1
216	224	1
217	653	1
217	1141	1
217	273	1
217	274	1
217	1183	1
217	1215	1
217	266	1
217	718	1
217	739	1
218	965	1
218	416	1
218	600	1
219	1335	1
219	1076	1
219	885	1
219	805	1
219	661	1
220	1166	1
220	1326	1
220	950	1
220	344	1
221	992	1
221	896	1
221	1195	1
221	605	1
221	955	1
221	1074	1
221	453	1
221	1285	1
221	1406	1
221	1416	1
221	956	1
221	698	1
221	309	1
221	887	1
221	1256	1
221	620	1
221	1139	1
221	895	1
221	870	1
221	709	1
221	1140	1
221	1221	1
221	1271	1
222	1327	1
222	1487	1
223	734	1
223	1293	1
223	1316	1
223	1338	1
223	760	1
224	1225	1
224	1467	1
224	1342	1
224	629	1
224	245	1
225	467	1
225	1266	1
225	729	1
226	757	1
226	600	1
226	774	1
226	329	1
226	846	1
227	786	1
227	1069	1
227	707	1
227	622	1
228	338	1
228	1148	1
228	1114	1
228	922	1
229	883	1
229	1324	1
229	1175	1
229	737	1
230	1068	1
230	1221	1
231	466	1
231	900	1
231	1323	1
232	694	1
232	276	1
233	562	1
233	241	1
233	600	1
233	774	1
234	815	1
234	1074	1
234	952	1
234	1002	1
234	782	1
235	797	1
235	853	1
236	1032	1
236	432	1
236	617	1
236	527	1
236	1337	1
237	907	1
237	635	1
238	678	1
238	1339	1
239	394	1
239	1145	1
239	313	1
239	880	1
240	1203	1
240	1385	1
240	554	1
240	453	1
240	1057	1
240	804	1
240	820	1
240	486	1
240	1341	1
240	1110	1
240	1037	1
240	1133	1
240	856	1
240	1344	1
241	562	1
242	842	1
242	1321	1
243	983	1
243	1365	1
244	725	1
244	457	1
244	295	1
244	253	1
244	645	1
244	666	1
244	1033	1
244	746	1
244	1010	1
244	772	1
244	1096	1
245	1328	1
245	337	1
245	1050	1
245	1199	1
245	281	1
246	421	1
246	676	1
246	389	1
246	841	1
247	815	1
247	965	1
247	952	1
247	635	1
247	890	1
247	589	1
247	702	1
248	915	1
248	917	1
248	298	1
248	863	1
249	1022	1
249	657	1
249	1323	1
250	1406	1
250	365	1
251	1234	1
251	396	1
251	1216	1
251	980	1
252	623	1
252	1391	1
253	857	1
253	457	1
253	306	1
253	1107	1
253	898	1
253	322	1
253	484	1
253	948	1
253	738	1
253	869	1
253	1096	1
253	614	1
253	383	1
253	671	1
253	790	1
254	1108	1
254	1114	1
255	475	1
255	1036	1
255	1072	1
256	527	1
256	1098	1
257	831	1
257	388	1
257	902	1
257	301	1
258	388	1
258	678	1
258	1339	1
258	869	1
258	723	1
258	383	1
259	368	1
259	905	1
259	764	1
259	901	1
259	1050	1
259	1127	1
260	726	1
260	1235	1
260	1214	1
261	361	1
261	662	1
262	1329	1
262	287	1
262	1257	1
263	338	1
263	937	1
263	310	1
263	1080	1
264	1113	1
264	1443	1
265	336	1
265	864	1
266	1215	1
266	739	1
267	1202	1
267	1073	1
267	1392	1
268	1332	1
268	474	1
269	1054	1
270	286	1
270	425	1
270	294	1
271	835	1
271	707	1
271	864	1
271	1092	1
272	1255	1
272	1371	1
273	739	1
274	654	1
274	739	1
274	1200	1
274	451	1
275	898	1
275	445	1
275	1258	1
276	338	1
276	1148	1
276	490	1
276	712	1
276	708	1
277	1048	1
277	902	1
277	881	1
278	333	1
278	1354	1
279	305	1
279	457	1
279	494	1
279	280	1
279	530	1
279	418	1
280	1435	1
281	1225	1
281	1467	1
281	1342	1
281	629	1
282	604	1
282	309	1
282	610	1
283	1066	1
283	1325	1
283	1340	1
283	1343	1
284	615	1
284	1227	1
284	1121	1
284	633	1
284	593	1
284	660	1
284	1091	1
284	953	1
285	1226	1
285	1167	1
285	919	1
285	1289	1
285	1311	1
286	776	1
287	1329	1
287	1257	1
288	667	1
288	878	1
288	855	1
289	763	1
289	1043	1
289	304	1
290	769	1
290	1463	1
290	617	1
291	931	1
291	1282	1
292	606	1
292	744	1
292	1023	1
292	1060	1
292	1351	1
292	612	1
292	1052	1
292	859	1
292	1373	1
292	702	1
292	709	1
292	384	1
293	467	1
293	1419	1
293	903	1
294	776	1
294	677	1
294	1008	1
294	958	1
294	806	1
295	717	1
296	816	1
297	769	1
297	1463	1
298	985	1
298	380	1
298	917	1
298	980	1
298	1010	1
298	601	1
299	837	1
299	1204	1
299	918	1
299	425	1
299	731	1
300	1480	1
301	388	1
301	680	1
301	869	1
301	383	1
302	993	1
302	457	1
302	1416	1
302	656	1
302	678	1
302	433	1
302	361	1
302	951	1
302	1339	1
302	979	1
303	552	1
303	475	1
303	1147	1
303	1072	1
304	1347	1
304	608	1
304	919	1
304	1043	1
304	670	1
305	1376	1
305	457	1
305	1006	1
305	1230	1
305	628	1
306	892	1
306	407	1
307	676	1
307	1072	1
308	544	1
308	366	1
308	442	1
309	457	1
309	1254	1
309	902	1
309	794	1
309	1256	1
309	952	1
309	407	1
309	823	1
309	913	1
309	702	1
309	1011	1
309	709	1
310	1112	1
310	937	1
310	454	1
310	854	1
310	1080	1
311	401	1
311	984	1
311	1120	1
311	1067	1
311	598	1
311	1130	1
311	804	1
311	1009	1
311	486	1
311	951	1
311	1256	1
311	920	1
311	1110	1
311	1341	1
311	971	1
311	1037	1
311	702	1
311	856	1
311	913	1
311	983	1
312	1203	1
312	860	1
312	1385	1
312	1057	1
312	820	1
313	367	1
313	815	1
313	567	1
313	782	1
313	530	1
313	661	1
313	330	1
314	710	1
314	1120	1
314	914	1
314	845	1
314	1083	1
315	1301	1
315	1313	1
315	1064	1
315	1253	1
315	511	1
315	1304	1
315	1085	1
315	470	1
315	556	1
315	872	1
315	530	1
315	488	1
315	812	1
315	451	1
316	1195	1
316	815	1
316	1285	1
316	1294	1
316	698	1
316	583	1
316	952	1
317	683	1
317	730	1
318	871	1
319	896	1
319	499	1
319	606	1
319	1416	1
319	926	1
319	583	1
319	1060	1
319	952	1
319	1372	1
319	612	1
319	913	1
320	1056	1
320	1147	1
321	942	1
321	1340	1
322	857	1
322	998	1
322	567	1
322	1074	1
322	544	1
322	327	1
322	362	1
322	505	1
322	782	1
322	723	1
322	869	1
322	1240	1
322	383	1
322	1187	1
323	544	1
323	440	1
324	678	1
324	1339	1
325	1074	1
326	1262	1
326	906	1
326	1333	1
326	719	1
327	896	1
327	527	1
327	965	1
327	396	1
327	678	1
327	751	1
327	1193	1
327	1339	1
327	399	1
327	1364	1
327	1354	1
327	1011	1
328	435	1
328	984	1
328	1387	1
328	1425	1
328	570	1
328	659	1
328	1352	1
328	487	1
328	778	1
328	1460	1
328	1505	1
328	881	1
329	858	1
329	1415	1
329	1096	1
330	1277	1
330	1424	1
330	1002	1
330	723	1
330	782	1
331	648	1
331	766	1
332	766	1
332	889	1
333	1147	1
334	866	1
334	1296	1
335	524	1
335	1181	1
335	1275	1
335	1355	1
336	338	1
336	1148	1
336	1348	1
336	1198	1
336	471	1
336	707	1
336	864	1
336	440	1
337	1225	1
337	1467	1
337	485	1
337	1342	1
337	629	1
338	1148	1
338	987	1
338	471	1
338	922	1
339	1227	1
339	1121	1
339	633	1
339	593	1
339	1397	1
339	660	1
339	1091	1
339	953	1
340	769	1
340	1463	1
340	999	1
341	1013	1
341	370	1
342	541	1
342	1324	1
342	883	1
342	939	1
342	1175	1
342	737	1
343	1226	1
343	1356	1
343	1422	1
343	533	1
343	1109	1
343	1381	1
343	1499	1
343	1401	1
343	463	1
344	797	1
344	527	1
344	956	1
344	1337	1
344	853	1
344	620	1
344	997	1
345	870	1
346	608	1
346	1230	1
346	1221	1
347	815	1
347	583	1
348	467	1
348	1359	1
349	351	1
349	1098	1
350	397	1
350	772	1
351	1180	1
351	924	1
351	1303	1
351	496	1
351	928	1
351	377	1
352	744	1
352	1052	1
353	467	1
353	1248	1
353	1419	1
354	1482	1
354	919	1
355	1278	1
356	723	1
356	869	1
356	383	1
357	1293	1
357	1435	1
357	760	1
357	483	1
358	1220	1
359	561	1
359	1368	1
360	738	1
361	1166	1
361	457	1
361	676	1
361	433	1
362	984	1
362	761	1
362	1364	1
363	857	1
363	545	1
364	1439	1
364	1511	1
364	1168	1
364	1126	1
365	1307	1
366	675	1
366	851	1
366	504	1
367	815	1
367	914	1
367	1294	1
367	397	1
367	1079	1
367	1145	1
367	782	1
367	880	1
367	1373	1
368	809	1
369	984	1
369	1120	1
369	722	1
370	1013	1
370	631	1
370	1273	1
370	582	1
370	633	1
370	648	1
371	878	1
372	995	1
372	1079	1
373	677	1
373	1520	1
374	1402	1
374	696	1
374	1407	1
374	1349	1
374	867	1
374	1388	1
374	1457	1
374	950	1
374	399	1
374	600	1
374	1392	1
374	1241	1
375	623	1
375	1088	1
376	1321	1
377	1098	1
378	389	1
379	718	1
380	985	1
380	915	1
380	863	1
380	980	1
381	697	1
381	1053	1
382	723	1
383	930	1
383	893	1
383	998	1
383	475	1
383	1007	1
383	1277	1
383	900	1
383	826	1
383	1307	1
383	758	1
383	1351	1
383	1296	1
383	612	1
383	723	1
383	1364	1
383	652	1
384	1383	1
384	1099	1
384	533	1
384	543	1
384	744	1
384	598	1
384	1033	1
384	1305	1
384	1177	1
384	438	1
384	863	1
384	748	1
384	1194	1
384	628	1
384	418	1
385	815	1
385	1347	1
385	583	1
385	952	1
386	1445	1
387	857	1
387	1229	1
387	630	1
388	1452	1
388	892	1
388	597	1
388	757	1
388	909	1
388	952	1
388	1061	1
388	879	1
388	600	1
388	774	1
388	702	1
389	1291	1
389	710	1
389	403	1
389	906	1
389	976	1
389	1029	1
389	1018	1
390	1142	1
390	1416	1
392	1376	1
392	457	1
392	533	1
392	1006	1
392	965	1
392	751	1
392	1207	1
392	1350	1
392	1393	1
392	1118	1
393	654	1
393	1200	1
394	984	1
394	1120	1
394	893	1
394	605	1
394	446	1
394	1416	1
394	1372	1
394	722	1
395	938	1
395	1232	1
395	1441	1
396	1234	1
396	1223	1
396	965	1
396	579	1
396	1216	1
396	1088	1
396	416	1
397	1386	1
397	1001	1
397	600	1
398	1413	1
398	535	1
398	1143	1
399	1357	1
399	1388	1
399	1070	1
399	1241	1
400	1405	1
400	708	1
400	1382	1
401	1203	1
401	984	1
401	955	1
401	1385	1
401	1067	1
401	1057	1
401	1416	1
401	820	1
401	1256	1
401	1341	1
401	1037	1
402	484	1
402	975	1
403	1169	1
403	569	1
403	903	1
404	1327	1
404	1339	1
405	1114	1
406	561	1
406	580	1
407	575	1
407	875	1
408	1105	1
408	680	1
409	1336	1
410	1292	1
410	1124	1
410	440	1
410	630	1
410	1299	1
411	617	1
411	879	1
411	702	1
411	724	1
412	835	1
412	707	1
412	864	1
413	453	1
413	1479	1
414	527	1
414	1476	1
415	889	1
416	561	1
416	457	1
416	1480	1
417	959	1
417	483	1
418	533	1
418	438	1
418	1323	1
419	769	1
419	1463	1
419	999	1
419	640	1
419	1364	1
419	1323	1
420	678	1
420	1339	1
421	653	1
421	847	1
421	893	1
421	436	1
421	1244	1
421	1137	1
421	722	1
422	694	1
422	712	1
423	871	1
423	1215	1
423	1123	1
423	1469	1
423	927	1
424	1518	1
424	886	1
424	1111	1
425	837	1
425	1204	1
425	512	1
425	935	1
425	546	1
426	1366	1
426	1276	1
427	1099	1
427	533	1
427	674	1
427	586	1
427	1304	1
427	1386	1
427	564	1
427	1323	1
428	678	1
428	1339	1
429	1166	1
429	1468	1
429	1483	1
429	1095	1
430	934	1
430	1010	1
430	1118	1
430	1393	1
431	798	1
431	678	1
431	1339	1
432	477	1
432	1306	1
433	909	1
433	1269	1
434	1377	1
434	1396	1
434	728	1
435	1352	1
436	841	1
437	1376	1
437	533	1
437	1165	1
438	533	1
438	748	1
438	1177	1
438	1194	1
438	628	1
438	1323	1
439	457	1
439	533	1
439	1023	1
439	758	1
439	1426	1
439	1152	1
439	1087	1
439	1081	1
440	1301	1
440	552	1
440	1462	1
440	674	1
440	577	1
440	1033	1
440	1229	1
440	628	1
440	1299	1
440	630	1
440	1365	1
441	1473	1
441	511	1
441	598	1
442	675	1
442	851	1
443	453	1
443	952	1
444	1500	1
445	1089	1
445	468	1
445	492	1
445	611	1
445	1258	1
445	692	1
446	984	1
446	1416	1
446	1256	1
446	952	1
447	623	1
447	1391	1
447	602	1
447	596	1
448	1488	1
448	582	1
449	1416	1
449	1036	1
449	1372	1
450	902	1
450	995	1
450	1098	1
451	1190	1
451	1175	1
451	470	1
451	556	1
451	1085	1
451	1349	1
451	872	1
451	737	1
451	751	1
451	853	1
451	1390	1
451	1363	1
451	613	1
451	1102	1
451	530	1
451	812	1
451	519	1
452	1327	1
452	879	1
453	984	1
453	1195	1
453	1203	1
453	860	1
453	1385	1
453	1067	1
453	1057	1
453	608	1
453	1285	1
453	1379	1
453	698	1
453	1337	1
453	820	1
453	486	1
453	620	1
453	1139	1
454	1112	1
454	1222	1
454	1360	1
454	1114	1
454	1162	1
454	854	1
454	1080	1
454	473	1
454	922	1
454	474	1
455	493	1
455	1098	1
456	1358	1
456	617	1
456	527	1
456	1445	1
456	580	1
456	1185	1
457	896	1
457	984	1
457	1006	1
457	666	1
457	1416	1
457	556	1
457	1307	1
457	1370	1
457	1125	1
457	1372	1
457	1230	1
457	488	1
457	671	1
457	813	1
457	1412	1
457	682	1
457	1312	1
458	1214	1
458	1091	1
459	857	1
459	676	1
459	995	1
459	1408	1
459	1374	1
460	871	1
460	1450	1
461	973	1
461	965	1
461	462	1
461	772	1
462	521	1
462	965	1
462	1466	1
462	1085	1
462	1229	1
462	772	1
462	621	1
462	530	1
462	813	1
463	1356	1
463	1435	1
464	792	1
464	952	1
465	617	1
465	794	1
466	1044	1
466	946	1
466	1045	1
467	1156	1
467	1266	1
467	1280	1
467	1419	1
467	1248	1
467	903	1
468	898	1
468	1258	1
468	530	1
469	1314	1
469	1032	1
469	527	1
470	1301	1
470	533	1
470	1304	1
470	948	1
470	1085	1
470	556	1
470	610	1
470	613	1
470	530	1
470	488	1
470	812	1
471	1148	1
472	984	1
473	1112	1
473	714	1
473	1155	1
474	1112	1
474	1108	1
474	1378	1
474	1080	1
474	523	1
475	715	1
476	1435	1
477	954	1
478	962	1
478	1033	1
479	481	1
479	1200	1
479	692	1
481	850	1
481	587	1
481	637	1
482	1033	1
482	1034	1
483	1404	1
483	1268	1
483	1362	1
483	531	1
483	881	1
484	1120	1
484	634	1
484	530	1
484	574	1
485	893	1
485	722	1
486	1203	1
486	984	1
486	860	1
486	1385	1
486	1067	1
486	554	1
486	1057	1
486	804	1
486	820	1
486	706	1
486	1341	1
486	1037	1
486	1133	1
487	893	1
487	1352	1
488	1301	1
488	1107	1
488	556	1
488	613	1
488	530	1
488	812	1
489	1222	1
489	727	1
489	1160	1
489	1369	1
489	1162	1
489	854	1
490	1286	1
490	1491	1
490	1477	1
490	835	1
491	1375	1
491	528	1
492	1258	1
493	1303	1
493	759	1
495	1483	1
495	793	1
495	1427	1
495	1095	1
495	522	1
496	1098	1
497	1105	1
497	1481	1
497	521	1
497	562	1
497	600	1
498	1024	1
498	855	1
499	999	1
499	952	1
499	879	1
499	913	1
500	883	1
500	1324	1
500	1175	1
500	737	1
501	907	1
501	753	1
502	543	1
502	1029	1
503	604	1
503	1336	1
504	999	1
504	544	1
504	983	1
505	1070	1
505	1364	1
506	868	1
507	1013	1
507	1273	1
507	633	1
508	567	1
508	782	1
508	517	1
509	905	1
509	1033	1
510	1475	1
510	669	1
510	981	1
511	794	1
512	837	1
512	1204	1
512	918	1
513	1381	1
513	596	1
514	1062	1
515	1488	1
515	786	1
515	582	1
515	622	1
516	711	1
516	1360	1
517	1001	1
518	821	1
518	959	1
519	743	1
519	1388	1
519	589	1
520	927	1
520	651	1
521	815	1
521	1395	1
521	1339	1
521	796	1
522	831	1
522	764	1
522	795	1
523	1112	1
523	1080	1
524	534	1
524	1275	1
525	902	1
525	995	1
525	1220	1
526	1414	1
526	1497	1
527	1440	1
527	1326	1
527	1443	1
527	1349	1
527	950	1
527	1449	1
527	636	1
527	936	1
527	1401	1
527	1011	1
527	1501	1
528	1375	1
528	666	1
528	1379	1
528	1349	1
528	1257	1
528	1178	1
529	1026	1
530	1301	1
530	533	1
530	1406	1
530	1304	1
530	1085	1
530	1288	1
530	1417	1
530	1329	1
530	613	1
530	812	1
531	1136	1
531	1404	1
531	1435	1
531	1362	1
531	959	1
531	719	1
532	848	1
532	940	1
532	757	1
532	774	1
533	1099	1
533	725	1
533	1031	1
533	645	1
533	1074	1
533	1022	1
533	1386	1
533	975	1
533	1305	1
533	1274	1
533	862	1
533	1177	1
533	1125	1
533	1061	1
533	843	1
533	1230	1
533	981	1
533	1260	1
533	1062	1
533	1323	1
533	812	1
533	601	1
533	651	1
533	1365	1
534	1181	1
534	1070	1
535	837	1
536	897	1
536	1233	1
537	1369	1
538	548	1
538	1136	1
538	1395	1
538	1479	1
539	1454	1
540	1488	1
541	1443	1
541	1063	1
542	645	1
542	619	1
542	1144	1
543	815	1
543	847	1
543	553	1
543	1255	1
543	840	1
543	1371	1
543	1486	1
544	1366	1
544	675	1
544	851	1
544	547	1
544	1299	1
546	1465	1
546	1451	1
547	1237	1
547	1428	1
548	837	1
548	550	1
549	834	1
549	573	1
550	1136	1
551	1213	1
551	1469	1
552	978	1
552	1036	1
552	1239	1
552	723	1
552	1147	1
552	1072	1
553	1031	1
554	1413	1
554	567	1
554	804	1
554	1133	1
555	735	1
555	891	1
556	893	1
556	674	1
556	872	1
556	1492	1
556	1036	1
556	613	1
556	559	1
556	812	1
557	1488	1
557	786	1
557	582	1
557	765	1
557	1360	1
558	1488	1
558	582	1
559	618	1
560	656	1
560	1470	1
561	1403	1
561	1433	1
561	934	1
561	1249	1
562	678	1
562	1339	1
562	814	1
563	710	1
563	716	1
563	690	1
563	1029	1
565	1062	1
566	1215	1
566	739	1
567	847	1
567	925	1
567	998	1
567	1149	1
567	1503	1
567	1406	1
567	1277	1
567	1304	1
567	1169	1
567	1424	1
567	1307	1
567	1398	1
567	879	1
567	1002	1
567	782	1
567	723	1
567	812	1
567	595	1
567	1082	1
567	846	1
568	572	1
569	1370	1
570	1352	1
571	1340	1
571	1312	1
572	1349	1
572	1401	1
573	879	1
574	1085	1
574	853	1
574	890	1
574	813	1
575	1288	1
576	689	1
576	1410	1
577	1301	1
577	1376	1
577	1304	1
577	1124	1
577	1171	1
578	603	1
578	1233	1
578	1480	1
579	678	1
579	1339	1
579	1361	1
579	1401	1
580	646	1
580	1433	1
581	1386	1
581	1323	1
582	1055	1
582	1488	1
582	633	1
582	699	1
582	765	1
582	1360	1
582	658	1
582	1218	1
582	1231	1
583	815	1
583	998	1
583	1395	1
583	1294	1
583	1468	1
583	952	1
583	879	1
583	1071	1
583	1437	1
583	1139	1
583	913	1
583	702	1
583	709	1
583	1221	1
584	1322	1
585	1473	1
585	705	1
585	1449	1
585	1118	1
586	1346	1
587	1200	1
588	1120	1
588	1072	1
589	965	1
589	952	1
589	635	1
589	1011	1
590	1031	1
590	1074	1
591	1095	1
592	1132	1
592	1459	1
592	628	1
593	1104	1
593	1055	1
593	884	1
593	699	1
593	658	1
593	1091	1
593	953	1
594	1054	1
594	728	1
594	689	1
595	782	1
596	1422	1
596	1243	1
596	1284	1
596	1381	1
597	1191	1
597	1420	1
598	971	1
599	678	1
599	1339	1
600	896	1
600	1481	1
600	961	1
600	757	1
600	696	1
600	1267	1
600	1457	1
600	909	1
600	635	1
600	1164	1
600	601	1
600	774	1
601	915	1
601	1327	1
602	1031	1
603	1480	1
604	1211	1
604	1161	1
604	1495	1
605	742	1
605	1416	1
605	879	1
606	1313	1
606	744	1
606	1071	1
606	1117	1
607	792	1
607	747	1
608	1309	1
608	927	1
608	1043	1
608	954	1
609	1313	1
609	815	1
609	1204	1
609	1376	1
609	674	1
609	1075	1
609	1359	1
609	891	1
609	702	1
610	968	1
610	1321	1
612	1313	1
612	1453	1
612	744	1
612	1036	1
612	1117	1
612	807	1
612	1147	1
612	1472	1
613	1085	1
614	1505	1
616	985	1
616	655	1
617	1345	1
617	1262	1
617	1476	1
617	1131	1
617	1177	1
617	1172	1
617	1331	1
617	1399	1
617	1449	1
617	1401	1
617	1011	1
617	881	1
617	724	1
619	645	1
619	1000	1
619	1109	1
619	1179	1
620	1313	1
620	742	1
620	1346	1
620	955	1
620	1015	1
620	1416	1
620	686	1
620	956	1
620	1337	1
620	910	1
620	722	1
620	823	1
620	1201	1
620	1271	1
621	1473	1
621	1105	1
621	893	1
621	1490	1
621	1446	1
621	680	1
621	1010	1
621	991	1
622	884	1
623	1421	1
623	810	1
623	638	1
623	676	1
624	653	1
624	844	1
625	1033	1
625	1034	1
626	785	1
626	1358	1
626	1432	1
626	1215	1
627	1322	1
628	1132	1
628	1323	1
629	1328	1
629	1050	1
629	1199	1
630	1105	1
630	1229	1
630	1299	1
630	1188	1
631	1013	1
631	1273	1
632	1454	1
632	678	1
632	1339	1
632	1408	1
632	1322	1
632	1374	1
633	1013	1
633	1273	1
633	953	1
634	706	1
634	717	1
634	890	1
634	1420	1
634	813	1
635	965	1
635	1416	1
635	1256	1
635	952	1
635	879	1
635	1224	1
635	702	1
635	913	1
635	1011	1
636	1098	1
637	743	1
637	1210	1
637	886	1
637	1388	1
637	1151	1
637	1478	1
637	1217	1
637	1139	1
637	1438	1
637	1220	1
637	732	1
638	1391	1
639	1105	1
639	680	1
639	1115	1
640	769	1
640	1463	1
640	999	1
640	1033	1
640	1238	1
640	1102	1
640	1147	1
640	754	1
641	896	1
641	1266	1
641	1207	1
642	1379	1
642	1483	1
642	746	1
642	1427	1
642	1409	1
643	900	1
644	665	1
644	1327	1
644	1444	1
644	799	1
644	806	1
644	1321	1
645	1376	1
645	674	1
645	1075	1
645	1287	1
645	1144	1
645	1193	1
645	1010	1
646	1255	1
646	1371	1
647	923	1
647	1208	1
649	849	1
649	1434	1
649	1418	1
649	740	1
649	1290	1
650	789	1
650	828	1
650	1050	1
652	998	1
652	869	1
652	1364	1
653	1141	1
653	1213	1
653	1183	1
653	1084	1
653	1215	1
653	841	1
653	718	1
654	1368	1
655	1448	1
655	1043	1
655	954	1
656	1185	1
656	979	1
656	1296	1
657	1022	1
657	1323	1
659	1445	1
659	1352	1
660	953	1
661	1466	1
661	1493	1
662	1166	1
663	832	1
664	901	1
664	1323	1
664	1029	1
664	1072	1
665	776	1
665	1444	1
665	1429	1
666	1375	1
666	1379	1
666	1257	1
666	1096	1
667	878	1
668	764	1
668	1118	1
669	1489	1
669	1475	1
670	1043	1
671	725	1
671	890	1
671	1296	1
671	1096	1
672	945	1
672	1084	1
672	887	1
672	718	1
672	1043	1
673	879	1
673	1250	1
674	1305	1
674	1287	1
674	1365	1
675	815	1
676	857	1
676	1099	1
676	725	1
676	972	1
676	1423	1
676	745	1
676	862	1
676	1296	1
676	913	1
676	1063	1
677	756	1
677	1265	1
677	1359	1
677	957	1
677	767	1
677	806	1
677	1487	1
678	1394	1
678	721	1
678	1431	1
678	1384	1
678	756	1
678	750	1
678	1264	1
678	975	1
678	787	1
678	1456	1
678	1086	1
678	1417	1
678	1177	1
678	1125	1
678	767	1
678	782	1
678	1411	1
678	1017	1
679	1129	1
679	1296	1
680	1105	1
680	1431	1
680	1192	1
680	1474	1
680	861	1
680	1033	1
680	851	1
680	1137	1
680	1484	1
680	919	1
680	995	1
680	1299	1
681	771	1
681	778	1
683	1436	1
683	730	1
683	1155	1
684	815	1
684	886	1
684	1132	1
684	1493	1
684	879	1
684	1139	1
685	769	1
685	1463	1
686	1313	1
686	1337	1
687	857	1
687	743	1
687	1357	1
687	1349	1
687	1388	1
687	879	1
687	1470	1
688	1291	1
688	887	1
689	1054	1
689	1108	1
689	700	1
689	1410	1
689	783	1
690	1029	1
690	1209	1
691	697	1
691	1053	1
692	894	1
693	1099	1
694	1054	1
694	1148	1
694	1286	1
695	775	1
696	1267	1
696	1457	1
696	1241	1
697	830	1
697	1502	1
697	1197	1
697	784	1
697	1053	1
698	1067	1
698	1416	1
698	952	1
699	1104	1
699	884	1
699	766	1
699	889	1
700	1442	1
700	1455	1
700	1410	1
700	1155	1
701	1227	1
701	1208	1
702	992	1
702	896	1
702	815	1
702	998	1
702	1074	1
702	1416	1
702	1215	1
702	1468	1
702	1237	1
702	1483	1
702	1256	1
702	1036	1
702	952	1
702	1428	1
702	1372	1
702	879	1
702	1010	1
702	1230	1
702	1409	1
702	913	1
702	1187	1
702	709	1
702	1271	1
703	1475	1
703	821	1
704	1129	1
704	826	1
704	979	1
704	1269	1
707	884	1
707	1464	1
707	835	1
707	1218	1
707	922	1
708	1078	1
708	1382	1
709	992	1
709	896	1
709	815	1
709	1074	1
709	1416	1
709	1294	1
709	1215	1
709	1237	1
709	1256	1
709	952	1
709	1229	1
709	1428	1
709	1010	1
709	1230	1
709	1409	1
709	870	1
709	913	1
710	914	1
710	845	1
711	1496	1
711	817	1
711	852	1
711	864	1
711	922	1
713	1453	1
713	1351	1
714	1496	1
714	1491	1
714	1436	1
714	1471	1
714	1155	1
715	1072	1
716	1291	1
717	772	1
718	1291	1
718	1430	1
718	945	1
718	1213	1
718	1084	1
718	1215	1
718	1123	1
718	1469	1
718	739	1
718	844	1
719	1345	1
719	1262	1
719	906	1
719	840	1
719	949	1
719	1333	1
719	1486	1
720	932	1
720	1053	1
721	1461	1
721	776	1
721	1339	1
722	1064	1
722	984	1
722	893	1
722	1120	1
722	956	1
722	841	1
723	998	1
723	1395	1
723	826	1
723	1077	1
723	1239	1
723	869	1
723	782	1
723	1240	1
723	1072	1
725	738	1
726	817	1
726	1069	1
727	1222	1
727	800	1
727	854	1
728	1054	1
728	1396	1
728	1442	1
728	1455	1
728	1504	1
728	1155	1
729	839	1
729	1266	1
729	1275	1
731	1336	1
731	1204	1
731	1146	1
732	1251	1
732	850	1
733	952	1
733	1139	1
734	1367	1
735	1416	1
735	1256	1
735	952	1
735	879	1
735	1224	1
735	913	1
735	1011	1
737	1441	1
737	1159	1
737	1389	1
737	1458	1
737	1063	1
739	1141	1
739	1183	1
739	1215	1
740	1434	1
741	1250	1
742	1064	1
742	984	1
742	956	1
742	910	1
742	761	1
743	850	1
744	962	1
744	1122	1
744	1060	1
744	1351	1
744	863	1
744	1494	1
744	1052	1
745	1317	1
745	971	1
746	793	1
746	1427	1
746	813	1
747	964	1
748	1370	1
748	1323	1
749	961	1
749	1182	1
749	916	1
750	1085	1
750	1339	1
750	812	1
751	1234	1
751	799	1
751	855	1
751	1174	1
752	1426	1
752	827	1
753	788	1
753	907	1
753	909	1
754	769	1
754	1463	1
754	999	1
754	1304	1
754	1147	1
755	995	1
755	1219	1
756	1339	1
757	1481	1
757	1051	1
757	774	1
758	769	1
758	1463	1
758	952	1
758	869	1
758	1230	1
758	859	1
759	1098	1
760	1430	1
760	1328	1
760	1150	1
760	908	1
760	1090	1
760	919	1
760	1330	1
760	952	1
760	1240	1
760	989	1
760	1038	1
760	1118	1
761	803	1
762	1139	1
763	1021	1
764	905	1
764	1370	1
764	1186	1
764	795	1
764	808	1
764	1147	1
765	1360	1
766	1205	1
767	1339	1
767	1487	1
768	1245	1
768	876	1
768	1374	1
769	1135	1
769	1463	1
769	963	1
769	1315	1
769	853	1
769	879	1
769	1102	1
770	1309	1
770	1448	1
770	1043	1
771	1418	1
772	1497	1
772	863	1
772	1230	1
772	1270	1
773	1449	1
774	1481	1
774	1051	1
775	1304	1
776	973	1
776	1465	1
776	1339	1
776	1247	1
776	809	1
777	857	1
777	1100	1
777	842	1
778	1352	1
779	1203	1
779	1385	1
779	1057	1
779	929	1
780	959	1
780	1139	1
780	1082	1
781	830	1
781	1502	1
781	1197	1
782	998	1
782	1149	1
782	1277	1
782	1406	1
782	1424	1
782	1087	1
782	1339	1
782	1002	1
782	1082	1
784	830	1
784	1197	1
785	1432	1
786	884	1
786	1114	1
786	864	1
787	1339	1
788	907	1
789	967	1
790	1307	1
791	1272	1
791	1031	1
792	1319	1
793	1483	1
793	1427	1
793	1095	1
794	952	1
794	1257	1
795	1100	1
795	1076	1
795	842	1
795	809	1
796	1105	1
796	861	1
796	899	1
796	1485	1
797	1265	1
798	912	1
799	865	1
800	1360	1
801	1054	1
802	1260	1
804	1203	1
804	984	1
804	1385	1
804	1057	1
804	1341	1
804	1037	1
804	1344	1
806	1312	1
807	1033	1
807	1260	1
808	1118	1
809	1212	1
809	1076	1
809	917	1
809	901	1
809	919	1
810	1391	1
811	985	1
811	1347	1
811	919	1
812	1301	1
812	1196	1
812	1253	1
812	1304	1
812	1085	1
812	1476	1
813	1006	1
813	1085	1
813	1125	1
814	848	1
814	940	1
815	1105	1
815	1142	1
815	998	1
815	1376	1
815	1395	1
815	1074	1
815	999	1
815	965	1
815	1416	1
815	1305	1
815	1001	1
815	1482	1
815	1090	1
815	1468	1
815	1145	1
815	952	1
815	1351	1
815	879	1
815	1230	1
815	1437	1
815	1139	1
815	880	1
815	913	1
815	1271	1
816	1272	1
817	1235	1
818	1104	1
818	1231	1
819	1003	1
820	1113	1
820	1110	1
820	1323	1
820	856	1
822	1360	1
822	1369	1
822	854	1
823	992	1
823	1416	1
824	1262	1
824	1389	1
825	1241	1
826	869	1
827	877	1
828	1182	1
828	967	1
829	1512	1
829	1010	1
830	1502	1
830	1197	1
830	1278	1
830	1004	1
830	1093	1
833	1290	1
833	929	1
834	1115	1
835	864	1
835	1092	1
836	1004	1
836	1053	1
837	1395	1
837	1143	1
837	1001	1
837	918	1
837	935	1
837	1479	1
837	959	1
838	1094	1
838	888	1
839	1266	1
840	1486	1
841	984	1
841	1195	1
841	847	1
841	893	1
841	1385	1
841	1067	1
841	1275	1
841	1244	1
841	1137	1
842	1100	1
844	945	1
844	1176	1
844	895	1
845	1120	1
845	914	1
845	1224	1
845	1083	1
846	848	1
847	1503	1
847	1304	1
847	1398	1
848	940	1
849	1434	1
850	1210	1
850	886	1
850	1388	1
850	1151	1
850	1217	1
850	1478	1
850	1139	1
850	1438	1
850	1220	1
851	1105	1
852	1496	1
852	884	1
852	864	1
852	1281	1
853	1463	1
853	939	1
853	1085	1
854	1160	1
854	1369	1
855	865	1
855	1355	1
856	984	1
856	1385	1
856	1067	1
856	1057	1
857	1251	1
857	1099	1
857	1276	1
857	1034	1
857	1228	1
857	1185	1
857	1139	1
857	1364	1
857	1097	1
858	1370	1
858	1412	1
860	1133	1
861	1105	1
861	1302	1
861	994	1
863	1439	1
863	1168	1
863	917	1
863	1126	1
863	1082	1
864	1348	1
864	1198	1
865	1024	1
866	1446	1
867	1098	1
869	930	1
869	998	1
869	1277	1
869	1077	1
869	1296	1
869	1364	1
870	1246	1
870	1256	1
871	1141	1
871	1123	1
871	1215	1
871	1319	1
873	1483	1
873	1374	1
874	1464	1
874	1235	1
875	902	1
876	1245	1
879	896	1
879	1463	1
879	1376	1
879	1007	1
879	1255	1
879	1475	1
879	1215	1
879	926	1
879	1185	1
879	952	1
879	1011	1
880	1445	1
881	1352	1
881	959	1
882	1142	1
882	1416	1
883	1441	1
883	1159	1
883	1389	1
883	1458	1
883	1063	1
885	1315	1
885	917	1
885	1476	1
887	1291	1
887	992	1
887	1101	1
888	1270	1
889	1205	1
891	1337	1
891	1088	1
893	896	1
893	930	1
893	984	1
893	1120	1
893	1277	1
893	941	1
893	1036	1
893	1229	1
893	952	1
893	991	1
893	1012	1
894	1089	1
895	992	1
896	1120	1
896	1395	1
896	1256	1
896	952	1
896	1096	1
896	997	1
896	913	1
897	1510	1
897	1233	1
897	1113	1
897	1103	1
898	1288	1
899	1485	1
900	1044	1
900	946	1
900	1045	1
900	1245	1
900	1307	1
900	1514	1
901	912	1
902	1376	1
903	1370	1
903	1242	1
904	1321	1
906	1345	1
906	1262	1
906	907	1
906	949	1
907	1068	1
908	1293	1
909	1415	1
909	1164	1
910	1064	1
910	984	1
910	956	1
911	1173	1
911	1043	1
913	1416	1
913	1215	1
913	926	1
913	1229	1
913	1230	1
914	1452	1
914	1120	1
914	1138	1
914	1224	1
916	1249	1
917	1134	1
917	1228	1
917	1118	1
919	947	1
919	1293	1
919	1432	1
919	1482	1
919	1041	1
921	1250	1
922	1496	1
922	1148	1
922	1014	1
922	1491	1
922	977	1
922	1114	1
922	982	1
922	1471	1
924	1503	1
924	1098	1
925	1506	1
925	1512	1
925	1010	1
925	997	1
926	999	1
926	952	1
927	1059	1
927	1308	1
928	1518	1
928	1098	1
929	1211	1
929	1161	1
930	1395	1
930	1437	1
931	1505	1
932	1053	1
933	1377	1
933	1332	1
934	1137	1
935	1280	1
936	1251	1
936	1131	1
937	1112	1
937	1378	1
937	1114	1
939	998	1
939	1085	1
939	1063	1
941	1271	1
943	1445	1
944	1124	1
944	1365	1
945	1430	1
945	1449	1
946	1323	1
947	984	1
947	1289	1
949	1473	1
949	1262	1
950	1475	1
951	955	1
951	1416	1
951	1256	1
952	1195	1
952	955	1
952	998	1
952	1074	1
952	1007	1
952	1293	1
952	1285	1
952	965	1
952	1416	1
952	1379	1
952	1294	1
952	1001	1
952	1337	1
952	1468	1
952	1237	1
952	1483	1
952	1049	1
952	1229	1
952	1428	1
952	981	1
952	1409	1
952	1139	1
952	960	1
952	1011	1
952	1221	1
953	1227	1
953	1121	1
953	1214	1
953	1091	1
954	1059	1
954	1043	1
955	956	1
955	1023	1
955	1256	1
955	1221	1
956	1313	1
956	1015	1
956	1416	1
956	1337	1
956	1256	1
956	1201	1
956	1271	1
957	1105	1
957	1519	1
959	1404	1
959	1279	1
959	1268	1
959	1362	1
960	1074	1
960	1230	1
961	1050	1
962	1507	1
962	1052	1
963	1463	1
964	1255	1
965	993	1
965	1519	1
965	1321	1
966	1217	1
966	1174	1
967	1050	1
968	1321	1
969	1213	1
969	1509	1
969	1018	1
970	1074	1
970	1022	1
970	1323	1
971	1193	1
972	1415	1
973	1466	1
973	1321	1
973	1493	1
973	1411	1
974	1025	1
975	1339	1
977	1114	1
978	1147	1
978	1072	1
981	1254	1
981	1489	1
981	1475	1
982	1114	1
983	1090	1
984	1064	1
984	1462	1
984	1120	1
984	1385	1
984	1067	1
984	1316	1
984	1057	1
984	1041	1
984	1009	1
984	1036	1
984	1110	1
984	1352	1
984	1096	1
984	1039	1
985	1363	1
987	1508	1
988	1469	1
988	1300	1
989	1293	1
990	1504	1
990	1400	1
992	1057	1
992	1317	1
992	1193	1
992	1256	1
992	1154	1
995	1251	1
995	1105	1
995	1016	1
995	1220	1
996	1445	1
998	1395	1
998	1316	1
998	1416	1
998	1240	1
998	1139	1
998	1364	1
999	1033	1
999	1238	1
999	1102	1
999	1147	1
1000	1109	1
1003	1194	1
1004	1455	1
1004	1053	1
1005	1517	1
1005	1495	1
1008	1042	1
1010	1512	1
1010	1317	1
1011	1223	1
1011	1216	1
1011	1147	1
1012	1120	1
1013	1273	1
1013	1206	1
1014	1112	1
1016	1374	1
1017	1339	1
1017	1098	1
1018	1300	1
1019	1163	1
1020	1322	1
1021	1316	1
1021	1173	1
1022	1157	1
1023	1048	1
1023	1242	1
1025	1051	1
1025	1164	1
1026	1451	1
1027	1221	1
1029	1291	1
1029	1430	1
1029	1307	1
1030	1228	1
1031	1272	1
1031	1376	1
1032	1337	1
1033	1301	1
1033	1453	1
1033	1376	1
1033	1507	1
1033	1304	1
1033	1124	1
1033	1171	1
1035	1496	1
1035	1281	1
1036	1064	1
1036	1120	1
1036	1147	1
1036	1072	1
1037	1203	1
1037	1067	1
1037	1341	1
1038	1293	1
1040	1288	1
1040	1519	1
1041	1289	1
1043	1447	1
1044	1323	1
1046	1190	1
1047	1414	1
1047	1468	1
1048	1323	1
1049	1445	1
1050	1225	1
1050	1467	1
1050	1342	1
1052	1122	1
1052	1494	1
1053	1455	1
1056	1304	1
1057	1203	1
1057	1067	1
1057	1113	1
1057	1110	1
1057	1133	1
1058	1213	1
1058	1067	1
1060	1313	1
1060	1117	1
1063	1324	1
1063	1175	1
1065	1125	1
1066	1340	1
1066	1343	1
1067	1203	1
1067	1195	1
1067	1120	1
1067	1385	1
1067	1110	1
1067	1341	1
1069	1235	1
1070	1073	1
1071	1294	1
1072	1120	1
1072	1416	1
1072	1138	1
1072	1505	1
1072	1147	1
1072	1472	1
1073	1202	1
1073	1357	1
1074	1514	1
1074	1256	1
1078	1405	1
1080	1112	1
1080	1378	1
1083	1120	1
1083	1307	1
1083	1224	1
1084	1291	1
1084	1430	1
1084	1213	1
1084	1183	1
1084	1469	1
1086	1339	1
1088	1156	1
1088	1158	1
1089	1258	1
1090	1293	1
1090	1294	1
1090	1445	1
1091	1121	1
1091	1397	1
1093	1502	1
1093	1278	1
1094	1391	1
1096	1125	1
1096	1230	1
1096	1312	1
1098	1180	1
1098	1303	1
1099	1520	1
1099	1186	1
1101	1291	1
1102	1463	1
1103	1510	1
1104	1231	1
1105	1431	1
1105	1192	1
1105	1474	1
1105	1395	1
1105	1137	1
1105	1484	1
1105	1229	1
1109	1361	1
1109	1179	1
1110	1385	1
1113	1385	1
1113	1497	1
1116	1488	1
1117	1351	1
1118	1506	1
1118	1293	1
1118	1215	1
1118	1137	1
1118	1514	1
1119	1445	1
1120	1385	1
1120	1334	1
1121	1382	1
1123	1141	1
1124	1299	1
1125	1376	1
1125	1515	1
1128	1415	1
1128	1370	1
1130	1283	1
1130	1193	1
1131	1172	1
1131	1399	1
1132	1459	1
1133	1203	1
1133	1385	1
1133	1344	1
1133	1209	1
1134	1315	1
1134	1476	1
1135	1463	1
1136	1157	1
1136	1404	1
1136	1362	1
1139	1453	1
1139	1316	1
1139	1416	1
1139	1294	1
1139	1256	1
1140	1416	1
1141	1255	1
1141	1371	1
1142	1372	1
1142	1373	1
1146	1380	1
1147	1238	1
1147	1239	1
1147	1334	1
1149	1322	1
1150	1293	1
1151	1263	1
1151	1386	1
1151	1323	1
1152	1426	1
1153	1262	1
1155	1396	1
1155	1436	1
1155	1508	1
1156	1228	1
1157	1351	1
1157	1323	1
1159	1324	1
1159	1175	1
1160	1378	1
1161	1513	1
1161	1290	1
1170	1255	1
1170	1371	1
1171	1462	1
1171	1376	1
1171	1260	1
1171	1299	1
1171	1365	1
1172	1379	1
1172	1228	1
1173	1316	1
1174	1217	1
1175	1389	1
1175	1458	1
1176	1215	1
1177	1339	1
1177	1323	1
1178	1375	1
1182	1249	1
1184	1250	1
1187	1416	1
1188	1229	1
1191	1334	1
1193	1370	1
1193	1220	1
1194	1323	1
1195	1416	1
1196	1435	1
1197	1502	1
1197	1278	1
1199	1225	1
1199	1467	1
1199	1342	1
1201	1277	1
1211	1513	1
1212	1446	1
1212	1280	1
1213	1469	1
1215	1255	1
1215	1371	1
1215	1469	1
1215	1393	1
1218	1488	1
1219	1390	1
1220	1259	1
1221	1294	1
1221	1256	1
1221	1261	1
1225	1328	1
1226	1356	1
1226	1499	1
1228	1501	1
1229	1299	1
1230	1256	1
1230	1353	1
1231	1488	1
1232	1441	1
1233	1510	1
1236	1445	1
1239	1505	1
1240	1293	1
1240	1364	1
1241	1452	1
1241	1402	1
1241	1407	1
1241	1457	1
1243	1381	1
1245	1374	1
1247	1444	1
1247	1429	1
1248	1275	1
1251	1453	1
1251	1423	1
1252	1322	1
1255	1371	1
1255	1450	1
1256	1285	1
1256	1416	1
1256	1287	1
1256	1372	1
1257	1379	1
1257	1329	1
1260	1301	1
1261	1370	1
1262	1345	1
1262	1473	1
1262	1446	1
1263	1514	1
1264	1339	1
1267	1402	1
1271	1416	1
1271	1294	1
1273	1488	1
1274	1298	1
1277	1395	1
1277	1437	1
1278	1502	1
1280	1374	1
1282	1303	1
1284	1381	1
1287	1365	1
1289	1432	1
1290	1434	1
1291	1430	1
1293	1430	1
1293	1328	1
1293	1330	1
1294	1372	1
1297	1337	1
1299	1301	1
1299	1376	1
1299	1304	1
1299	1365	1
1305	1376	1
1307	1406	1
1313	1416	1
1313	1351	1
1313	1372	1
1315	1463	1
1316	1367	1
1316	1338	1
1317	1353	1
1320	1488	1
1321	1339	1
1323	1383	1
1323	1385	1
1323	1386	1
1324	1441	1
1324	1389	1
1324	1458	1
1325	1340	1
1327	1461	1
1327	1482	1
1327	1487	1
1328	1467	1
1328	1342	1
1329	1409	1
1332	1400	1
1335	1370	1
1336	1380	1
1337	1416	1
1337	1505	1
1339	1394	1
1339	1431	1
1339	1384	1
1339	1456	1
1339	1417	1
1339	1411	1
1340	1343	1
1349	1470	1
1350	1368	1
1351	1447	1
1352	1387	1
1352	1425	1
1352	1460	1
1352	1505	1
1353	1383	1
1356	1499	1
1357	1475	1
1358	1432	1
1363	1420	1
1364	1452	1
1365	1376	1
1368	1403	1
1368	1433	1
1370	1415	1
1370	1498	1
1372	1373	1
1379	1483	1
1379	1409	1
1391	1421	1
1391	1414	1
1391	1420	1
1408	1473	1
1409	1483	1
1412	1498	1
1418	1434	1
1440	1443	1
1443	1497	1
1446	1490	1
1452	1457	1
1468	1483	1
1469	1509	1
1473	1490	1
1473	1516	1
1475	1489	1
1477	1491	1
1478	1511	1
1480	1517	1
1490	1516	1
772	0	1
152	0	1
1105	1	1
545	1	1
680	1	1
1215	2	1
1176	2	1
259	3	1
905	3	1
826	3	1
764	3	1
1077	3	1
1370	3	1
919	3	1
805	3	1
846	3	1
593	4	1
1091	4	1
556	5	1
1023	5	1
937	6	1
1160	6	1
1080	6	1
473	6	1
474	6	1
454	7	1
800	7	1
1053	7	1
1380	8	1
731	8	1
1064	9	1
128	9	1
984	9	1
202	9	1
1106	9	1
273	9	1
87	9	1
554	9	1
791	9	1
986	9	1
62	9	1
563	9	1
47	9	1
169	9	1
160	9	1
124	9	1
480	9	1
1295	9	1
1172	9	1
1036	9	1
1049	9	1
116	9	1
996	9	1
989	9	1
192	9	1
1029	9	1
1140	9	1
61	10	1
663	10	1
832	10	1
900	10	1
1034	10	1
506	10	1
82	10	1
176	10	1
157	11	1
355	11	1
726	12	1
1235	12	1
921	12	1
741	12	1
1250	12	1
1019	13	1
203	13	1
296	13	1
816	13	1
29	13	1
819	13	1
746	13	1
1193	13	1
1194	13	1
1003	13	1
463	13	1
84	13	1
974	14	1
878	14	1
371	14	1
751	14	1
799	14	1
288	14	1
530	14	1
938	15	1
327	15	1
1011	15	1
925	16	1
1118	16	1
221	17	1
567	17	1
879	17	1
256	18	1
1180	18	1
91	18	1
924	18	1
847	18	1
111	18	1
567	18	1
676	18	1
493	18	1
496	18	1
759	18	1
450	18	1
100	18	1
1139	18	1
156	19	1
545	19	1
957	19	1
958	19	1
321	19	1
1042	19	1
68	20	1
570	20	1
959	20	1
936	20	1
518	20	1
154	21	1
221	21	1
742	21	1
1346	21	1
955	21	1
1015	21	1
453	21	1
1277	21	1
1416	21	1
686	21	1
956	21	1
1337	21	1
910	21	1
115	21	1
620	21	1
722	21	1
823	21	1
344	21	1
1271	21	1
1007	22	1
1028	22	1
367	23	1
543	23	1
618	23	1
350	23	1
556	23	1
1001	23	1
132	23	1
559	23	1
782	23	1
1228	24	1
99	24	1
761	24	1
1030	24	1
906	25	1
705	25	1
971	25	1
714	26	1
593	26	1
781	26	1
660	26	1
117	26	1
1085	27	1
514	27	1
565	27	1
764	28	1
1098	28	1
444	29	1
1003	29	1
1500	29	1
809	29	1
77	29	1
153	29	1
930	30	1
984	30	1
93	30	1
394	30	1
421	30	1
1277	30	1
941	30	1
556	30	1
485	30	1
841	30	1
1036	30	1
191	30	1
487	30	1
621	30	1
383	30	1
67	30	1
1012	30	1
991	30	1
91	31	1
561	31	1
493	31	1
1098	31	1
1212	32	1
220	32	1
984	33	1
1120	33	1
1009	33	1
1256	33	1
920	33	1
311	33	1
79	34	1
95	34	1
1268	34	1
81	34	1
1087	34	1
438	34	1
863	34	1
517	34	1
782	34	1
1323	34	1
881	34	1
1082	34	1
171	34	1
234	34	1
1121	35	1
1091	35	1
953	35	1
541	36	1
527	36	1
1010	37	1
870	37	1
644	38	1
665	38	1
1327	38	1
919	38	1
769	39	1
1463	39	1
107	40	1
642	40	1
429	40	1
333	41	1
1138	41	1
416	41	1
300	41	1
1354	41	1
519	41	1
844	42	1
1097	42	1
902	43	1
277	43	1
1087	44	1
1370	44	1
1129	45	1
334	45	1
679	45	1
1296	45	1
1213	46	1
1469	46	1
568	47	1
469	47	1
1163	47	1
572	47	1
451	47	1
1106	48	1
825	48	1
1188	48	1
1212	49	1
885	49	1
723	49	1
998	50	1
97	50	1
302	50	1
652	50	1
866	51	1
65	51	1
331	52	1
923	52	1
615	52	1
1206	52	1
648	52	1
269	52	1
537	52	1
1116	52	1
540	52	1
1488	53	1
631	53	1
1273	53	1
633	53	1
341	53	1
937	54	1
1160	54	1
454	54	1
310	54	1
473	54	1
1099	55	1
533	55	1
1085	55	1
866	56	1
773	56	1
896	57	1
1416	57	1
122	57	1
583	57	1
1428	57	1
1372	57	1
547	57	1
709	57	1
1271	57	1
247	58	1
65	58	1
104	59	1
1370	59	1
1323	59	1
384	59	1
221	60	1
1246	60	1
1256	60	1
345	60	1
709	60	1
105	61	1
140	61	1
868	61	1
1385	62	1
1057	62	1
88	62	1
184	62	1
95	63	1
583	63	1
205	64	1
655	64	1
1059	64	1
1448	64	1
1043	64	1
954	64	1
877	65	1
95	66	1
617	66	1
984	67	1
893	67	1
104	67	1
470	67	1
722	67	1
488	67	1
812	67	1
530	67	1
315	67	1
592	68	1
1430	69	1
653	69	1
1213	69	1
202	69	1
945	69	1
1183	69	1
70	69	1
624	69	1
205	69	1
1084	69	1
379	69	1
1295	69	1
217	69	1
1469	69	1
718	69	1
739	69	1
844	69	1
672	69	1
527	70	1
1215	70	1
423	70	1
1188	70	1
317	71	1
683	71	1
987	71	1
730	71	1
1272	72	1
257	72	1
1031	72	1
816	72	1
1076	72	1
1077	72	1
746	72	1
805	72	1
176	72	1
127	73	1
1291	73	1
202	73	1
378	73	1
403	73	1
906	73	1
88	73	1
976	73	1
988	73	1
1029	73	1
246	73	1
1018	73	1
1300	73	1
437	74	1
1165	74	1
157	75	1
801	75	1
1105	76	1
521	76	1
544	76	1
199	76	1
366	76	1
442	76	1
879	77	1
809	77	1
172	78	1
961	78	1
838	78	1
1274	78	1
826	78	1
433	78	1
361	78	1
888	78	1
909	78	1
979	78	1
875	78	1
1296	78	1
1028	78	1
1298	78	1
302	78	1
367	79	1
197	79	1
584	79	1
1178	79	1
782	79	1
104	80	1
870	80	1
671	80	1
959	81	1
173	82	1
497	83	1
639	83	1
1003	84	1
328	85	1
1352	85	1
244	86	1
152	86	1
1276	87	1
1189	88	1
984	88	1
1067	88	1
129	88	1
453	88	1
389	88	1
486	88	1
1110	88	1
1323	88	1
192	88	1
856	88	1
1283	89	1
1130	89	1
207	89	1
1193	89	1
1065	90	1
452	90	1
437	90	1
1165	90	1
256	91	1
1180	91	1
103	91	1
1303	91	1
867	91	1
450	91	1
759	91	1
496	91	1
100	91	1
928	91	1
1017	91	1
377	91	1
998	92	1
1364	92	1
984	93	1
893	93	1
914	93	1
484	93	1
1237	93	1
99	93	1
501	94	1
788	94	1
907	94	1
753	94	1
367	95	1
710	95	1
955	95	1
543	95	1
194	95	1
792	95	1
229	95	1
610	95	1
1279	95	1
150	95	1
223	95	1
995	95	1
780	95	1
480	95	1
1079	95	1
438	95	1
391	95	1
863	95	1
1297	95	1
100	95	1
441	95	1
880	95	1
330	95	1
551	95	1
1046	96	1
450	96	1
1105	97	1
1302	97	1
866	97	1
521	97	1
994	97	1
861	97	1
680	97	1
546	97	1
1026	97	1
796	97	1
336	98	1
864	98	1
271	98	1
742	99	1
803	99	1
1228	99	1
1098	100	1
711	101	1
516	101	1
1054	102	1
576	102	1
1108	102	1
728	102	1
700	102	1
783	102	1
493	103	1
288	103	1
1098	103	1
857	104	1
1301	104	1
802	104	1
984	104	1
972	104	1
533	104	1
554	104	1
577	104	1
476	104	1
1305	104	1
1033	104	1
470	104	1
556	104	1
609	104	1
1171	104	1
113	104	1
564	104	1
902	104	1
196	104	1
1036	104	1
198	104	1
843	104	1
612	104	1
1102	104	1
440	104	1
807	104	1
427	104	1
488	104	1
530	104	1
812	104	1
1260	104	1
1147	104	1
1299	104	1
1017	104	1
410	104	1
315	104	1
360	105	1
1189	106	1
388	106	1
461	106	1
344	106	1
235	106	1
456	107	1
591	107	1
793	107	1
1095	107	1
429	107	1
1081	108	1
903	108	1
850	109	1
637	109	1
332	110	1
186	110	1
766	110	1
593	110	1
415	110	1
190	110	1
889	110	1
886	111	1
494	111	1
1118	111	1
1292	112	1
529	112	1
533	113	1
748	113	1
438	113	1
1177	113	1
407	113	1
1194	113	1
628	113	1
418	113	1
274	114	1
1146	114	1
1111	114	1
509	114	1
154	115	1
956	115	1
620	115	1
596	115	1
502	116	1
472	116	1
1221	116	1
1055	117	1
405	117	1
864	117	1
221	118	1
316	118	1
955	118	1
1294	118	1
583	118	1
1256	118	1
952	118	1
1139	118	1
1221	118	1
850	119	1
1193	119	1
637	119	1
906	120	1
1379	120	1
705	120	1
971	120	1
237	121	1
325	121	1
909	121	1
995	121	1
775	122	1
358	122	1
525	122	1
695	122	1
1304	122	1
917	122	1
995	122	1
1193	122	1
392	122	1
1259	122	1
1323	122	1
1105	123	1
1023	123	1
425	123	1
322	124	1
497	125	1
562	125	1
233	125	1
684	126	1
1492	126	1
1184	126	1
201	127	1
401	127	1
984	127	1
1067	127	1
453	127	1
389	127	1
192	127	1
891	127	1
1154	127	1
1141	128	1
860	128	1
567	128	1
1123	128	1
804	128	1
240	128	1
1133	128	1
1031	129	1
1074	129	1
387	129	1
1156	130	1
1158	130	1
396	130	1
1088	130	1
375	130	1
1105	131	1
680	131	1
1505	131	1
556	132	1
618	132	1
559	132	1
726	133	1
1235	133	1
1308	134	1
288	134	1
855	134	1
533	135	1
1157	135	1
249	135	1
657	135	1
970	135	1
678	136	1
1515	136	1
539	136	1
948	137	1
530	137	1
770	138	1
1309	138	1
1043	138	1
643	139	1
1044	139	1
946	139	1
1045	139	1
231	139	1
857	140	1
1064	140	1
678	140	1
1306	140	1
868	140	1
1339	140	1
1331	140	1
738	140	1
778	140	1
850	141	1
1070	141	1
637	141	1
567	142	1
250	142	1
1307	142	1
782	142	1
530	142	1
1153	143	1
824	143	1
1291	144	1
147	144	1
1318	144	1
716	144	1
1310	144	1
1029	144	1
762	144	1
932	145	1
720	145	1
211	145	1
1053	145	1
1106	146	1
986	146	1
1262	147	1
1293	147	1
1318	147	1
1310	147	1
1333	147	1
177	147	1
762	147	1
779	148	1
1203	148	1
860	148	1
1057	148	1
312	148	1
338	149	1
1148	149	1
857	150	1
678	151	1
1339	151	1
1361	151	1
663	152	1
295	152	1
666	152	1
1138	152	1
863	152	1
244	152	1
209	152	1
1270	152	1
444	153	1
1314	153	1
221	154	1
1346	154	1
955	154	1
1015	154	1
1416	154	1
1337	154	1
620	154	1
722	154	1
891	154	1
1271	154	1
839	155	1
1337	155	1
225	155	1
678	156	1
942	156	1
611	156	1
1339	156	1
1519	156	1
801	157	1
367	158	1
815	158	1
170	158	1
330	158	1
1031	159	1
1074	159	1
791	159	1
975	159	1
1347	160	1
992	161	1
1293	161	1
598	161	1
1317	161	1
191	161	1
760	161	1
177	161	1
971	161	1
895	161	1
456	162	1
386	162	1
1119	162	1
1236	162	1
1090	162	1
659	162	1
1049	162	1
996	162	1
943	162	1
880	162	1
769	163	1
1463	163	1
1079	163	1
1323	163	1
847	164	1
567	164	1
997	164	1
728	165	1
1155	165	1
1085	166	1
514	166	1
565	166	1
1023	167	1
292	167	1
693	168	1
253	168	1
306	168	1
1085	168	1
470	168	1
169	168	1
853	168	1
279	168	1
890	168	1
1186	168	1
682	168	1
815	169	1
998	169	1
1316	169	1
899	169	1
1416	169	1
952	169	1
176	169	1
506	169	1
723	169	1
1139	169	1
710	170	1
1071	170	1
313	170	1
880	170	1
815	171	1
952	171	1
782	171	1
883	172	1
1324	172	1
1291	172	1
541	172	1
945	172	1
1106	172	1
1175	172	1
737	172	1
641	172	1
342	172	1
1063	172	1
869	173	1
723	173	1
383	173	1
913	173	1
1167	174	1
285	174	1
1041	174	1
919	174	1
1311	174	1
871	175	1
964	175	1
1319	175	1
391	175	1
1251	176	1
296	176	1
816	176	1
1430	177	1
357	177	1
202	177	1
1328	177	1
1150	177	1
908	177	1
1090	177	1
919	177	1
1330	177	1
223	177	1
952	177	1
1240	177	1
989	177	1
1038	177	1
1118	177	1
714	178	1
1320	178	1
922	178	1
597	179	1
382	179	1
721	180	1
797	180	1
904	180	1
318	180	1
736	180	1
678	180	1
1321	180	1
806	180	1
376	180	1
294	180	1
1039	180	1
1345	181	1
1475	181	1
906	181	1
326	181	1
719	181	1
226	182	1
914	182	1
388	182	1
678	182	1
1457	182	1
909	182	1
1339	182	1
635	182	1
600	182	1
1241	182	1
1364	182	1
1164	182	1
1291	183	1
527	183	1
779	184	1
401	184	1
453	184	1
1113	184	1
486	184	1
312	184	1
302	185	1
210	185	1
766	186	1
889	186	1
987	187	1
471	187	1
798	188	1
431	188	1
461	189	1
462	189	1
766	190	1
889	190	1
896	191	1
201	191	1
742	191	1
893	191	1
1337	191	1
952	191	1
910	191	1
1334	191	1
1067	192	1
1027	192	1
389	192	1
1066	193	1
1325	193	1
283	193	1
521	193	1
571	193	1
1340	193	1
1343	193	1
1312	193	1
257	194	1
258	194	1
805	194	1
795	194	1
776	195	1
736	195	1
1039	195	1
1315	196	1
1124	196	1
959	196	1
440	196	1
630	196	1
1299	196	1
1020	197	1
1252	197	1
1149	197	1
632	197	1
627	197	1
584	197	1
1322	197	1
1323	197	1
1313	198	1
1291	198	1
1157	198	1
306	198	1
453	198	1
713	198	1
1090	198	1
1228	198	1
1258	198	1
1071	198	1
1117	198	1
675	199	1
308	199	1
851	199	1
504	199	1
366	199	1
1299	199	1
983	199	1
1181	200	1
1193	200	1
598	201	1
1130	201	1
351	201	1
207	201	1
653	202	1
1213	202	1
624	202	1
1293	202	1
1058	202	1
1255	202	1
1215	202	1
266	202	1
389	202	1
217	202	1
1469	202	1
718	202	1
1448	202	1
739	202	1
879	202	1
760	202	1
988	202	1
246	202	1
551	202	1
1194	203	1
1003	203	1
1510	204	1
897	204	1
1336	204	1
989	204	1
409	204	1
1103	204	1
456	205	1
655	205	1
1295	205	1
718	205	1
1043	205	1
1242	205	1
304	205	1
396	206	1
579	206	1
251	206	1
1130	207	1
311	207	1
302	207	1
1328	208	1
337	208	1
789	208	1
1199	208	1
828	208	1
1050	208	1
281	208	1
224	208	1
1040	209	1
275	209	1
1288	209	1
1519	209	1
1321	209	1
1127	209	1
1134	210	1
1325	210	1
295	210	1
925	210	1
885	210	1
1427	210	1
642	210	1
697	211	1
720	211	1
1053	211	1
1024	212	1
865	212	1
1104	213	1
593	213	1
992	214	1
1193	214	1
678	215	1
1339	215	1
1328	216	1
337	216	1
1050	216	1
1199	216	1
281	216	1
224	216	1
653	217	1
1141	217	1
273	217	1
274	217	1
1183	217	1
1215	217	1
266	217	1
718	217	1
739	217	1
965	218	1
416	218	1
600	218	1
1335	219	1
1076	219	1
885	219	1
805	219	1
661	219	1
1166	220	1
1326	220	1
950	220	1
344	220	1
992	221	1
896	221	1
1195	221	1
605	221	1
955	221	1
1074	221	1
453	221	1
1285	221	1
1406	221	1
1416	221	1
956	221	1
698	221	1
309	221	1
887	221	1
1256	221	1
620	221	1
1139	221	1
895	221	1
870	221	1
709	221	1
1140	221	1
1221	221	1
1271	221	1
1327	222	1
1487	222	1
734	223	1
1293	223	1
1316	223	1
1338	223	1
760	223	1
1225	224	1
1467	224	1
1342	224	1
629	224	1
245	224	1
467	225	1
1266	225	1
729	225	1
757	226	1
600	226	1
774	226	1
329	226	1
846	226	1
786	227	1
1069	227	1
707	227	1
622	227	1
338	228	1
1148	228	1
1114	228	1
922	228	1
883	229	1
1324	229	1
1175	229	1
737	229	1
1068	230	1
1221	230	1
466	231	1
900	231	1
1323	231	1
694	232	1
276	232	1
562	233	1
241	233	1
600	233	1
774	233	1
815	234	1
1074	234	1
952	234	1
1002	234	1
782	234	1
797	235	1
853	235	1
1032	236	1
432	236	1
617	236	1
527	236	1
1337	236	1
907	237	1
635	237	1
678	238	1
1339	238	1
394	239	1
1145	239	1
313	239	1
880	239	1
1203	240	1
1385	240	1
554	240	1
453	240	1
1057	240	1
804	240	1
820	240	1
486	240	1
1341	240	1
1110	240	1
1037	240	1
1133	240	1
856	240	1
1344	240	1
562	241	1
842	242	1
1321	242	1
983	243	1
1365	243	1
725	244	1
457	244	1
295	244	1
253	244	1
645	244	1
666	244	1
1033	244	1
746	244	1
1010	244	1
772	244	1
1096	244	1
1328	245	1
337	245	1
1050	245	1
1199	245	1
281	245	1
421	246	1
676	246	1
389	246	1
841	246	1
815	247	1
965	247	1
952	247	1
635	247	1
890	247	1
589	247	1
702	247	1
915	248	1
917	248	1
298	248	1
863	248	1
1022	249	1
657	249	1
1323	249	1
1406	250	1
365	250	1
1234	251	1
396	251	1
1216	251	1
980	251	1
623	252	1
1391	252	1
857	253	1
457	253	1
306	253	1
1107	253	1
898	253	1
322	253	1
484	253	1
948	253	1
738	253	1
869	253	1
1096	253	1
614	253	1
383	253	1
671	253	1
790	253	1
1108	254	1
1114	254	1
475	255	1
1036	255	1
1072	255	1
527	256	1
1098	256	1
831	257	1
388	257	1
902	257	1
301	257	1
388	258	1
678	258	1
1339	258	1
869	258	1
723	258	1
383	258	1
368	259	1
905	259	1
764	259	1
901	259	1
1050	259	1
1127	259	1
726	260	1
1235	260	1
1214	260	1
361	261	1
662	261	1
1329	262	1
287	262	1
1257	262	1
338	263	1
937	263	1
310	263	1
1080	263	1
1113	264	1
1443	264	1
336	265	1
864	265	1
1215	266	1
739	266	1
1202	267	1
1073	267	1
1392	267	1
1332	268	1
474	268	1
1054	269	1
286	270	1
425	270	1
294	270	1
835	271	1
707	271	1
864	271	1
1092	271	1
1255	272	1
1371	272	1
739	273	1
654	274	1
739	274	1
1200	274	1
451	274	1
898	275	1
445	275	1
1258	275	1
338	276	1
1148	276	1
490	276	1
712	276	1
708	276	1
1048	277	1
902	277	1
881	277	1
333	278	1
1354	278	1
305	279	1
457	279	1
494	279	1
280	279	1
530	279	1
418	279	1
1435	280	1
1225	281	1
1467	281	1
1342	281	1
629	281	1
604	282	1
309	282	1
610	282	1
1066	283	1
1325	283	1
1340	283	1
1343	283	1
615	284	1
1227	284	1
1121	284	1
633	284	1
593	284	1
660	284	1
1091	284	1
953	284	1
1226	285	1
1167	285	1
919	285	1
1289	285	1
1311	285	1
776	286	1
1329	287	1
1257	287	1
667	288	1
878	288	1
855	288	1
763	289	1
1043	289	1
304	289	1
769	290	1
1463	290	1
617	290	1
931	291	1
1282	291	1
606	292	1
744	292	1
1023	292	1
1060	292	1
1351	292	1
612	292	1
1052	292	1
859	292	1
1373	292	1
702	292	1
709	292	1
384	292	1
467	293	1
1419	293	1
903	293	1
776	294	1
677	294	1
1008	294	1
958	294	1
806	294	1
717	295	1
816	296	1
769	297	1
1463	297	1
985	298	1
380	298	1
917	298	1
980	298	1
1010	298	1
601	298	1
837	299	1
1204	299	1
918	299	1
425	299	1
731	299	1
1480	300	1
388	301	1
680	301	1
869	301	1
383	301	1
993	302	1
457	302	1
1416	302	1
656	302	1
678	302	1
433	302	1
361	302	1
951	302	1
1339	302	1
979	302	1
552	303	1
475	303	1
1147	303	1
1072	303	1
1347	304	1
608	304	1
919	304	1
1043	304	1
670	304	1
1376	305	1
457	305	1
1006	305	1
1230	305	1
628	305	1
892	306	1
407	306	1
676	307	1
1072	307	1
544	308	1
366	308	1
442	308	1
457	309	1
1254	309	1
902	309	1
794	309	1
1256	309	1
952	309	1
407	309	1
823	309	1
913	309	1
702	309	1
1011	309	1
709	309	1
1112	310	1
937	310	1
454	310	1
854	310	1
1080	310	1
401	311	1
984	311	1
1120	311	1
1067	311	1
598	311	1
1130	311	1
804	311	1
1009	311	1
486	311	1
951	311	1
1256	311	1
920	311	1
1110	311	1
1341	311	1
971	311	1
1037	311	1
702	311	1
856	311	1
913	311	1
983	311	1
1203	312	1
860	312	1
1385	312	1
1057	312	1
820	312	1
367	313	1
815	313	1
567	313	1
782	313	1
530	313	1
661	313	1
330	313	1
710	314	1
1120	314	1
914	314	1
845	314	1
1083	314	1
1301	315	1
1313	315	1
1064	315	1
1253	315	1
511	315	1
1304	315	1
1085	315	1
470	315	1
556	315	1
872	315	1
530	315	1
488	315	1
812	315	1
451	315	1
1195	316	1
815	316	1
1285	316	1
1294	316	1
698	316	1
583	316	1
952	316	1
683	317	1
730	317	1
871	318	1
896	319	1
499	319	1
606	319	1
1416	319	1
926	319	1
583	319	1
1060	319	1
952	319	1
1372	319	1
612	319	1
913	319	1
1056	320	1
1147	320	1
942	321	1
1340	321	1
857	322	1
998	322	1
567	322	1
1074	322	1
544	322	1
327	322	1
362	322	1
505	322	1
782	322	1
723	322	1
869	322	1
1240	322	1
383	322	1
1187	322	1
544	323	1
440	323	1
678	324	1
1339	324	1
1074	325	1
1262	326	1
906	326	1
1333	326	1
719	326	1
896	327	1
527	327	1
965	327	1
396	327	1
678	327	1
751	327	1
1193	327	1
1339	327	1
399	327	1
1364	327	1
1354	327	1
1011	327	1
435	328	1
984	328	1
1387	328	1
1425	328	1
570	328	1
659	328	1
1352	328	1
487	328	1
778	328	1
1460	328	1
1505	328	1
881	328	1
858	329	1
1415	329	1
1096	329	1
1277	330	1
1424	330	1
1002	330	1
723	330	1
782	330	1
648	331	1
766	331	1
766	332	1
889	332	1
1147	333	1
866	334	1
1296	334	1
524	335	1
1181	335	1
1275	335	1
1355	335	1
338	336	1
1148	336	1
1348	336	1
1198	336	1
471	336	1
707	336	1
864	336	1
440	336	1
1225	337	1
1467	337	1
485	337	1
1342	337	1
629	337	1
1148	338	1
987	338	1
471	338	1
922	338	1
1227	339	1
1121	339	1
633	339	1
593	339	1
1397	339	1
660	339	1
1091	339	1
953	339	1
769	340	1
1463	340	1
999	340	1
1013	341	1
370	341	1
541	342	1
1324	342	1
883	342	1
939	342	1
1175	342	1
737	342	1
1226	343	1
1356	343	1
1422	343	1
533	343	1
1109	343	1
1381	343	1
1499	343	1
1401	343	1
463	343	1
797	344	1
527	344	1
956	344	1
1337	344	1
853	344	1
620	344	1
997	344	1
870	345	1
608	346	1
1230	346	1
1221	346	1
815	347	1
583	347	1
467	348	1
1359	348	1
351	349	1
1098	349	1
397	350	1
772	350	1
1180	351	1
924	351	1
1303	351	1
496	351	1
928	351	1
377	351	1
744	352	1
1052	352	1
467	353	1
1248	353	1
1419	353	1
1482	354	1
919	354	1
1278	355	1
723	356	1
869	356	1
383	356	1
1293	357	1
1435	357	1
760	357	1
483	357	1
1220	358	1
561	359	1
1368	359	1
738	360	1
1166	361	1
457	361	1
676	361	1
433	361	1
984	362	1
761	362	1
1364	362	1
857	363	1
545	363	1
1439	364	1
1511	364	1
1168	364	1
1126	364	1
1307	365	1
675	366	1
851	366	1
504	366	1
815	367	1
914	367	1
1294	367	1
397	367	1
1079	367	1
1145	367	1
782	367	1
880	367	1
1373	367	1
809	368	1
984	369	1
1120	369	1
722	369	1
1013	370	1
631	370	1
1273	370	1
582	370	1
633	370	1
648	370	1
878	371	1
995	372	1
1079	372	1
677	373	1
1520	373	1
1402	374	1
696	374	1
1407	374	1
1349	374	1
867	374	1
1388	374	1
1457	374	1
950	374	1
399	374	1
600	374	1
1392	374	1
1241	374	1
623	375	1
1088	375	1
1321	376	1
1098	377	1
389	378	1
718	379	1
985	380	1
915	380	1
863	380	1
980	380	1
697	381	1
1053	381	1
723	382	1
930	383	1
893	383	1
998	383	1
475	383	1
1007	383	1
1277	383	1
900	383	1
826	383	1
1307	383	1
758	383	1
1351	383	1
1296	383	1
612	383	1
723	383	1
1364	383	1
652	383	1
1383	384	1
1099	384	1
533	384	1
543	384	1
744	384	1
598	384	1
1033	384	1
1305	384	1
1177	384	1
438	384	1
863	384	1
748	384	1
1194	384	1
628	384	1
418	384	1
815	385	1
1347	385	1
583	385	1
952	385	1
1445	386	1
857	387	1
1229	387	1
630	387	1
1452	388	1
892	388	1
597	388	1
757	388	1
909	388	1
952	388	1
1061	388	1
879	388	1
600	388	1
774	388	1
702	388	1
1291	389	1
710	389	1
403	389	1
906	389	1
976	389	1
1029	389	1
1018	389	1
1142	390	1
1416	390	1
1376	392	1
457	392	1
533	392	1
1006	392	1
965	392	1
751	392	1
1207	392	1
1350	392	1
1393	392	1
1118	392	1
654	393	1
1200	393	1
984	394	1
1120	394	1
893	394	1
605	394	1
446	394	1
1416	394	1
1372	394	1
722	394	1
938	395	1
1232	395	1
1441	395	1
1234	396	1
1223	396	1
965	396	1
579	396	1
1216	396	1
1088	396	1
416	396	1
1386	397	1
1001	397	1
600	397	1
1413	398	1
535	398	1
1143	398	1
1357	399	1
1388	399	1
1070	399	1
1241	399	1
1405	400	1
708	400	1
1382	400	1
1203	401	1
984	401	1
955	401	1
1385	401	1
1067	401	1
1057	401	1
1416	401	1
820	401	1
1256	401	1
1341	401	1
1037	401	1
484	402	1
975	402	1
1169	403	1
569	403	1
903	403	1
1327	404	1
1339	404	1
1114	405	1
561	406	1
580	406	1
575	407	1
875	407	1
1105	408	1
680	408	1
1336	409	1
1292	410	1
1124	410	1
440	410	1
630	410	1
1299	410	1
617	411	1
879	411	1
702	411	1
724	411	1
835	412	1
707	412	1
864	412	1
453	413	1
1479	413	1
527	414	1
1476	414	1
889	415	1
561	416	1
457	416	1
1480	416	1
959	417	1
483	417	1
533	418	1
438	418	1
1323	418	1
769	419	1
1463	419	1
999	419	1
640	419	1
1364	419	1
1323	419	1
678	420	1
1339	420	1
653	421	1
847	421	1
893	421	1
436	421	1
1244	421	1
1137	421	1
722	421	1
694	422	1
712	422	1
871	423	1
1215	423	1
1123	423	1
1469	423	1
927	423	1
1518	424	1
886	424	1
1111	424	1
837	425	1
1204	425	1
512	425	1
935	425	1
546	425	1
1366	426	1
1276	426	1
1099	427	1
533	427	1
674	427	1
586	427	1
1304	427	1
1386	427	1
564	427	1
1323	427	1
678	428	1
1339	428	1
1166	429	1
1468	429	1
1483	429	1
1095	429	1
934	430	1
1010	430	1
1118	430	1
1393	430	1
798	431	1
678	431	1
1339	431	1
477	432	1
1306	432	1
909	433	1
1269	433	1
1377	434	1
1396	434	1
728	434	1
1352	435	1
841	436	1
1376	437	1
533	437	1
1165	437	1
533	438	1
748	438	1
1177	438	1
1194	438	1
628	438	1
1323	438	1
457	439	1
533	439	1
1023	439	1
758	439	1
1426	439	1
1152	439	1
1087	439	1
1081	439	1
1301	440	1
552	440	1
1462	440	1
674	440	1
577	440	1
1033	440	1
1229	440	1
628	440	1
1299	440	1
630	440	1
1365	440	1
1473	441	1
511	441	1
598	441	1
675	442	1
851	442	1
453	443	1
952	443	1
1500	444	1
1089	445	1
468	445	1
492	445	1
611	445	1
1258	445	1
692	445	1
984	446	1
1416	446	1
1256	446	1
952	446	1
623	447	1
1391	447	1
602	447	1
596	447	1
1488	448	1
582	448	1
1416	449	1
1036	449	1
1372	449	1
902	450	1
995	450	1
1098	450	1
1190	451	1
1175	451	1
470	451	1
556	451	1
1085	451	1
1349	451	1
872	451	1
737	451	1
751	451	1
853	451	1
1390	451	1
1363	451	1
613	451	1
1102	451	1
530	451	1
812	451	1
519	451	1
1327	452	1
879	452	1
984	453	1
1195	453	1
1203	453	1
860	453	1
1385	453	1
1067	453	1
1057	453	1
608	453	1
1285	453	1
1379	453	1
698	453	1
1337	453	1
820	453	1
486	453	1
620	453	1
1139	453	1
1112	454	1
1222	454	1
1360	454	1
1114	454	1
1162	454	1
854	454	1
1080	454	1
473	454	1
922	454	1
474	454	1
493	455	1
1098	455	1
1358	456	1
617	456	1
527	456	1
1445	456	1
580	456	1
1185	456	1
896	457	1
984	457	1
1006	457	1
666	457	1
1416	457	1
556	457	1
1307	457	1
1370	457	1
1125	457	1
1372	457	1
1230	457	1
488	457	1
671	457	1
813	457	1
1412	457	1
682	457	1
1312	457	1
1214	458	1
1091	458	1
857	459	1
676	459	1
995	459	1
1408	459	1
1374	459	1
871	460	1
1450	460	1
973	461	1
965	461	1
462	461	1
772	461	1
521	462	1
965	462	1
1466	462	1
1085	462	1
1229	462	1
772	462	1
621	462	1
530	462	1
813	462	1
1356	463	1
1435	463	1
792	464	1
952	464	1
617	465	1
794	465	1
1044	466	1
946	466	1
1045	466	1
1156	467	1
1266	467	1
1280	467	1
1419	467	1
1248	467	1
903	467	1
898	468	1
1258	468	1
530	468	1
1314	469	1
1032	469	1
527	469	1
1301	470	1
533	470	1
1304	470	1
948	470	1
1085	470	1
556	470	1
610	470	1
613	470	1
530	470	1
488	470	1
812	470	1
1148	471	1
984	472	1
1112	473	1
714	473	1
1155	473	1
1112	474	1
1108	474	1
1378	474	1
1080	474	1
523	474	1
715	475	1
1435	476	1
954	477	1
962	478	1
1033	478	1
481	479	1
1200	479	1
692	479	1
850	481	1
587	481	1
637	481	1
1033	482	1
1034	482	1
1404	483	1
1268	483	1
1362	483	1
531	483	1
881	483	1
1120	484	1
634	484	1
530	484	1
574	484	1
893	485	1
722	485	1
1203	486	1
984	486	1
860	486	1
1385	486	1
1067	486	1
554	486	1
1057	486	1
804	486	1
820	486	1
706	486	1
1341	486	1
1037	486	1
1133	486	1
893	487	1
1352	487	1
1301	488	1
1107	488	1
556	488	1
613	488	1
530	488	1
812	488	1
1222	489	1
727	489	1
1160	489	1
1369	489	1
1162	489	1
854	489	1
1286	490	1
1491	490	1
1477	490	1
835	490	1
1375	491	1
528	491	1
1258	492	1
1303	493	1
759	493	1
1483	495	1
793	495	1
1427	495	1
1095	495	1
522	495	1
1098	496	1
1105	497	1
1481	497	1
521	497	1
562	497	1
600	497	1
1024	498	1
855	498	1
999	499	1
952	499	1
879	499	1
913	499	1
883	500	1
1324	500	1
1175	500	1
737	500	1
907	501	1
753	501	1
543	502	1
1029	502	1
604	503	1
1336	503	1
999	504	1
544	504	1
983	504	1
1070	505	1
1364	505	1
868	506	1
1013	507	1
1273	507	1
633	507	1
567	508	1
782	508	1
517	508	1
905	509	1
1033	509	1
1475	510	1
669	510	1
981	510	1
794	511	1
837	512	1
1204	512	1
918	512	1
1381	513	1
596	513	1
1062	514	1
1488	515	1
786	515	1
582	515	1
622	515	1
711	516	1
1360	516	1
1001	517	1
821	518	1
959	518	1
743	519	1
1388	519	1
589	519	1
927	520	1
651	520	1
815	521	1
1395	521	1
1339	521	1
796	521	1
831	522	1
764	522	1
795	522	1
1112	523	1
1080	523	1
534	524	1
1275	524	1
902	525	1
995	525	1
1220	525	1
1414	526	1
1497	526	1
1440	527	1
1326	527	1
1443	527	1
1349	527	1
950	527	1
1449	527	1
636	527	1
936	527	1
1401	527	1
1011	527	1
1501	527	1
1375	528	1
666	528	1
1379	528	1
1349	528	1
1257	528	1
1178	528	1
1026	529	1
1301	530	1
533	530	1
1406	530	1
1304	530	1
1085	530	1
1288	530	1
1417	530	1
1329	530	1
613	530	1
812	530	1
1136	531	1
1404	531	1
1435	531	1
1362	531	1
959	531	1
719	531	1
848	532	1
940	532	1
757	532	1
774	532	1
1099	533	1
725	533	1
1031	533	1
645	533	1
1074	533	1
1022	533	1
1386	533	1
975	533	1
1305	533	1
1274	533	1
862	533	1
1177	533	1
1125	533	1
1061	533	1
843	533	1
1230	533	1
981	533	1
1260	533	1
1062	533	1
1323	533	1
812	533	1
601	533	1
651	533	1
1365	533	1
1181	534	1
1070	534	1
837	535	1
897	536	1
1233	536	1
1369	537	1
548	538	1
1136	538	1
1395	538	1
1479	538	1
1454	539	1
1488	540	1
1443	541	1
1063	541	1
645	542	1
619	542	1
1144	542	1
815	543	1
847	543	1
553	543	1
1255	543	1
840	543	1
1371	543	1
1486	543	1
1366	544	1
675	544	1
851	544	1
547	544	1
1299	544	1
1465	546	1
1451	546	1
1237	547	1
1428	547	1
837	548	1
550	548	1
834	549	1
573	549	1
1136	550	1
1213	551	1
1469	551	1
978	552	1
1036	552	1
1239	552	1
723	552	1
1147	552	1
1072	552	1
1031	553	1
1413	554	1
567	554	1
804	554	1
1133	554	1
735	555	1
891	555	1
893	556	1
674	556	1
872	556	1
1492	556	1
1036	556	1
613	556	1
559	556	1
812	556	1
1488	557	1
786	557	1
582	557	1
765	557	1
1360	557	1
1488	558	1
582	558	1
618	559	1
656	560	1
1470	560	1
1403	561	1
1433	561	1
934	561	1
1249	561	1
678	562	1
1339	562	1
814	562	1
710	563	1
716	563	1
690	563	1
1029	563	1
1062	565	1
1215	566	1
739	566	1
847	567	1
925	567	1
998	567	1
1149	567	1
1503	567	1
1406	567	1
1277	567	1
1304	567	1
1169	567	1
1424	567	1
1307	567	1
1398	567	1
879	567	1
1002	567	1
782	567	1
723	567	1
812	567	1
595	567	1
1082	567	1
846	567	1
572	568	1
1370	569	1
1352	570	1
1340	571	1
1312	571	1
1349	572	1
1401	572	1
879	573	1
1085	574	1
853	574	1
890	574	1
813	574	1
1288	575	1
689	576	1
1410	576	1
1301	577	1
1376	577	1
1304	577	1
1124	577	1
1171	577	1
603	578	1
1233	578	1
1480	578	1
678	579	1
1339	579	1
1361	579	1
1401	579	1
646	580	1
1433	580	1
1386	581	1
1323	581	1
1055	582	1
1488	582	1
633	582	1
699	582	1
765	582	1
1360	582	1
658	582	1
1218	582	1
1231	582	1
815	583	1
998	583	1
1395	583	1
1294	583	1
1468	583	1
952	583	1
879	583	1
1071	583	1
1437	583	1
1139	583	1
913	583	1
702	583	1
709	583	1
1221	583	1
1322	584	1
1473	585	1
705	585	1
1449	585	1
1118	585	1
1346	586	1
1200	587	1
1120	588	1
1072	588	1
965	589	1
952	589	1
635	589	1
1011	589	1
1031	590	1
1074	590	1
1095	591	1
1132	592	1
1459	592	1
628	592	1
1104	593	1
1055	593	1
884	593	1
699	593	1
658	593	1
1091	593	1
953	593	1
1054	594	1
728	594	1
689	594	1
782	595	1
1422	596	1
1243	596	1
1284	596	1
1381	596	1
1191	597	1
1420	597	1
971	598	1
678	599	1
1339	599	1
896	600	1
1481	600	1
961	600	1
757	600	1
696	600	1
1267	600	1
1457	600	1
909	600	1
635	600	1
1164	600	1
601	600	1
774	600	1
915	601	1
1327	601	1
1031	602	1
1480	603	1
1211	604	1
1161	604	1
1495	604	1
742	605	1
1416	605	1
879	605	1
1313	606	1
744	606	1
1071	606	1
1117	606	1
792	607	1
747	607	1
1309	608	1
927	608	1
1043	608	1
954	608	1
1313	609	1
815	609	1
1204	609	1
1376	609	1
674	609	1
1075	609	1
1359	609	1
891	609	1
702	609	1
968	610	1
1321	610	1
1313	612	1
1453	612	1
744	612	1
1036	612	1
1117	612	1
807	612	1
1147	612	1
1472	612	1
1085	613	1
1505	614	1
985	616	1
655	616	1
1345	617	1
1262	617	1
1476	617	1
1131	617	1
1177	617	1
1172	617	1
1331	617	1
1399	617	1
1449	617	1
1401	617	1
1011	617	1
881	617	1
724	617	1
645	619	1
1000	619	1
1109	619	1
1179	619	1
1313	620	1
742	620	1
1346	620	1
955	620	1
1015	620	1
1416	620	1
686	620	1
956	620	1
1337	620	1
910	620	1
722	620	1
823	620	1
1201	620	1
1271	620	1
1473	621	1
1105	621	1
893	621	1
1490	621	1
1446	621	1
680	621	1
1010	621	1
991	621	1
884	622	1
1421	623	1
810	623	1
638	623	1
676	623	1
653	624	1
844	624	1
1033	625	1
1034	625	1
785	626	1
1358	626	1
1432	626	1
1215	626	1
1322	627	1
1132	628	1
1323	628	1
1328	629	1
1050	629	1
1199	629	1
1105	630	1
1229	630	1
1299	630	1
1188	630	1
1013	631	1
1273	631	1
1454	632	1
678	632	1
1339	632	1
1408	632	1
1322	632	1
1374	632	1
1013	633	1
1273	633	1
953	633	1
706	634	1
717	634	1
890	634	1
1420	634	1
813	634	1
965	635	1
1416	635	1
1256	635	1
952	635	1
879	635	1
1224	635	1
702	635	1
913	635	1
1011	635	1
1098	636	1
743	637	1
1210	637	1
886	637	1
1388	637	1
1151	637	1
1478	637	1
1217	637	1
1139	637	1
1438	637	1
1220	637	1
732	637	1
1391	638	1
1105	639	1
680	639	1
1115	639	1
769	640	1
1463	640	1
999	640	1
1033	640	1
1238	640	1
1102	640	1
1147	640	1
754	640	1
896	641	1
1266	641	1
1207	641	1
1379	642	1
1483	642	1
746	642	1
1427	642	1
1409	642	1
900	643	1
665	644	1
1327	644	1
1444	644	1
799	644	1
806	644	1
1321	644	1
1376	645	1
674	645	1
1075	645	1
1287	645	1
1144	645	1
1193	645	1
1010	645	1
1255	646	1
1371	646	1
923	647	1
1208	647	1
849	649	1
1434	649	1
1418	649	1
740	649	1
1290	649	1
789	650	1
828	650	1
1050	650	1
998	652	1
869	652	1
1364	652	1
1141	653	1
1213	653	1
1183	653	1
1084	653	1
1215	653	1
841	653	1
718	653	1
1368	654	1
1448	655	1
1043	655	1
954	655	1
1185	656	1
979	656	1
1296	656	1
1022	657	1
1323	657	1
1445	659	1
1352	659	1
953	660	1
1466	661	1
1493	661	1
1166	662	1
832	663	1
901	664	1
1323	664	1
1029	664	1
1072	664	1
776	665	1
1444	665	1
1429	665	1
1375	666	1
1379	666	1
1257	666	1
1096	666	1
878	667	1
764	668	1
1118	668	1
1489	669	1
1475	669	1
1043	670	1
725	671	1
890	671	1
1296	671	1
1096	671	1
945	672	1
1084	672	1
887	672	1
718	672	1
1043	672	1
879	673	1
1250	673	1
1305	674	1
1287	674	1
1365	674	1
815	675	1
857	676	1
1099	676	1
725	676	1
972	676	1
1423	676	1
745	676	1
862	676	1
1296	676	1
913	676	1
1063	676	1
756	677	1
1265	677	1
1359	677	1
957	677	1
767	677	1
806	677	1
1487	677	1
1394	678	1
721	678	1
1431	678	1
1384	678	1
756	678	1
750	678	1
1264	678	1
975	678	1
787	678	1
1456	678	1
1086	678	1
1417	678	1
1177	678	1
1125	678	1
767	678	1
782	678	1
1411	678	1
1017	678	1
1129	679	1
1296	679	1
1105	680	1
1431	680	1
1192	680	1
1474	680	1
861	680	1
1033	680	1
851	680	1
1137	680	1
1484	680	1
919	680	1
995	680	1
1299	680	1
771	681	1
778	681	1
1436	683	1
730	683	1
1155	683	1
815	684	1
886	684	1
1132	684	1
1493	684	1
879	684	1
1139	684	1
769	685	1
1463	685	1
1313	686	1
1337	686	1
857	687	1
743	687	1
1357	687	1
1349	687	1
1388	687	1
879	687	1
1470	687	1
1291	688	1
887	688	1
1054	689	1
1108	689	1
700	689	1
1410	689	1
783	689	1
1029	690	1
1209	690	1
697	691	1
1053	691	1
894	692	1
1099	693	1
1054	694	1
1148	694	1
1286	694	1
775	695	1
1267	696	1
1457	696	1
1241	696	1
830	697	1
1502	697	1
1197	697	1
784	697	1
1053	697	1
1067	698	1
1416	698	1
952	698	1
1104	699	1
884	699	1
766	699	1
889	699	1
1442	700	1
1455	700	1
1410	700	1
1155	700	1
1227	701	1
1208	701	1
992	702	1
896	702	1
815	702	1
998	702	1
1074	702	1
1416	702	1
1215	702	1
1468	702	1
1237	702	1
1483	702	1
1256	702	1
1036	702	1
952	702	1
1428	702	1
1372	702	1
879	702	1
1010	702	1
1230	702	1
1409	702	1
913	702	1
1187	702	1
709	702	1
1271	702	1
1475	703	1
821	703	1
1129	704	1
826	704	1
979	704	1
1269	704	1
884	707	1
1464	707	1
835	707	1
1218	707	1
922	707	1
1078	708	1
1382	708	1
992	709	1
896	709	1
815	709	1
1074	709	1
1416	709	1
1294	709	1
1215	709	1
1237	709	1
1256	709	1
952	709	1
1229	709	1
1428	709	1
1010	709	1
1230	709	1
1409	709	1
870	709	1
913	709	1
914	710	1
845	710	1
1496	711	1
817	711	1
852	711	1
864	711	1
922	711	1
1453	713	1
1351	713	1
1496	714	1
1491	714	1
1436	714	1
1471	714	1
1155	714	1
1072	715	1
1291	716	1
772	717	1
1291	718	1
1430	718	1
945	718	1
1213	718	1
1084	718	1
1215	718	1
1123	718	1
1469	718	1
739	718	1
844	718	1
1345	719	1
1262	719	1
906	719	1
840	719	1
949	719	1
1333	719	1
1486	719	1
932	720	1
1053	720	1
1461	721	1
776	721	1
1339	721	1
1064	722	1
984	722	1
893	722	1
1120	722	1
956	722	1
841	722	1
998	723	1
1395	723	1
826	723	1
1077	723	1
1239	723	1
869	723	1
782	723	1
1240	723	1
1072	723	1
738	725	1
817	726	1
1069	726	1
1222	727	1
800	727	1
854	727	1
1054	728	1
1396	728	1
1442	728	1
1455	728	1
1504	728	1
1155	728	1
839	729	1
1266	729	1
1275	729	1
1336	731	1
1204	731	1
1146	731	1
1251	732	1
850	732	1
952	733	1
1139	733	1
1367	734	1
1416	735	1
1256	735	1
952	735	1
879	735	1
1224	735	1
913	735	1
1011	735	1
1441	737	1
1159	737	1
1389	737	1
1458	737	1
1063	737	1
1141	739	1
1183	739	1
1215	739	1
1434	740	1
1250	741	1
1064	742	1
984	742	1
956	742	1
910	742	1
761	742	1
850	743	1
962	744	1
1122	744	1
1060	744	1
1351	744	1
863	744	1
1494	744	1
1052	744	1
1317	745	1
971	745	1
793	746	1
1427	746	1
813	746	1
964	747	1
1370	748	1
1323	748	1
961	749	1
1182	749	1
916	749	1
1085	750	1
1339	750	1
812	750	1
1234	751	1
799	751	1
855	751	1
1174	751	1
1426	752	1
827	752	1
788	753	1
907	753	1
909	753	1
769	754	1
1463	754	1
999	754	1
1304	754	1
1147	754	1
995	755	1
1219	755	1
1339	756	1
1481	757	1
1051	757	1
774	757	1
769	758	1
1463	758	1
952	758	1
869	758	1
1230	758	1
859	758	1
1098	759	1
1430	760	1
1328	760	1
1150	760	1
908	760	1
1090	760	1
919	760	1
1330	760	1
952	760	1
1240	760	1
989	760	1
1038	760	1
1118	760	1
803	761	1
1139	762	1
1021	763	1
905	764	1
1370	764	1
1186	764	1
795	764	1
808	764	1
1147	764	1
1360	765	1
1205	766	1
1339	767	1
1487	767	1
1245	768	1
876	768	1
1374	768	1
1135	769	1
1463	769	1
963	769	1
1315	769	1
853	769	1
879	769	1
1102	769	1
1309	770	1
1448	770	1
1043	770	1
1418	771	1
1497	772	1
863	772	1
1230	772	1
1270	772	1
1449	773	1
1481	774	1
1051	774	1
1304	775	1
973	776	1
1465	776	1
1339	776	1
1247	776	1
809	776	1
857	777	1
1100	777	1
842	777	1
1352	778	1
1203	779	1
1385	779	1
1057	779	1
929	779	1
959	780	1
1139	780	1
1082	780	1
830	781	1
1502	781	1
1197	781	1
998	782	1
1149	782	1
1277	782	1
1406	782	1
1424	782	1
1087	782	1
1339	782	1
1002	782	1
1082	782	1
830	784	1
1197	784	1
1432	785	1
884	786	1
1114	786	1
864	786	1
1339	787	1
907	788	1
967	789	1
1307	790	1
1272	791	1
1031	791	1
1319	792	1
1483	793	1
1427	793	1
1095	793	1
952	794	1
1257	794	1
1100	795	1
1076	795	1
842	795	1
809	795	1
1105	796	1
861	796	1
899	796	1
1485	796	1
1265	797	1
912	798	1
865	799	1
1360	800	1
1054	801	1
1260	802	1
1203	804	1
984	804	1
1385	804	1
1057	804	1
1341	804	1
1037	804	1
1344	804	1
1312	806	1
1033	807	1
1260	807	1
1118	808	1
1212	809	1
1076	809	1
917	809	1
901	809	1
919	809	1
1391	810	1
985	811	1
1347	811	1
919	811	1
1301	812	1
1196	812	1
1253	812	1
1304	812	1
1085	812	1
1476	812	1
1006	813	1
1085	813	1
1125	813	1
848	814	1
940	814	1
1105	815	1
1142	815	1
998	815	1
1376	815	1
1395	815	1
1074	815	1
999	815	1
965	815	1
1416	815	1
1305	815	1
1001	815	1
1482	815	1
1090	815	1
1468	815	1
1145	815	1
952	815	1
1351	815	1
879	815	1
1230	815	1
1437	815	1
1139	815	1
880	815	1
913	815	1
1271	815	1
1272	816	1
1235	817	1
1104	818	1
1231	818	1
1003	819	1
1113	820	1
1110	820	1
1323	820	1
856	820	1
1360	822	1
1369	822	1
854	822	1
992	823	1
1416	823	1
1262	824	1
1389	824	1
1241	825	1
869	826	1
877	827	1
1182	828	1
967	828	1
1512	829	1
1010	829	1
1502	830	1
1197	830	1
1278	830	1
1004	830	1
1093	830	1
1290	833	1
929	833	1
1115	834	1
864	835	1
1092	835	1
1004	836	1
1053	836	1
1395	837	1
1143	837	1
1001	837	1
918	837	1
935	837	1
1479	837	1
959	837	1
1094	838	1
888	838	1
1266	839	1
1486	840	1
984	841	1
1195	841	1
847	841	1
893	841	1
1385	841	1
1067	841	1
1275	841	1
1244	841	1
1137	841	1
1100	842	1
945	844	1
1176	844	1
895	844	1
1120	845	1
914	845	1
1224	845	1
1083	845	1
848	846	1
1503	847	1
1304	847	1
1398	847	1
940	848	1
1434	849	1
1210	850	1
886	850	1
1388	850	1
1151	850	1
1217	850	1
1478	850	1
1139	850	1
1438	850	1
1220	850	1
1105	851	1
1496	852	1
884	852	1
864	852	1
1281	852	1
1463	853	1
939	853	1
1085	853	1
1160	854	1
1369	854	1
865	855	1
1355	855	1
984	856	1
1385	856	1
1067	856	1
1057	856	1
1251	857	1
1099	857	1
1276	857	1
1034	857	1
1228	857	1
1185	857	1
1139	857	1
1364	857	1
1097	857	1
1370	858	1
1412	858	1
1133	860	1
1105	861	1
1302	861	1
994	861	1
1439	863	1
1168	863	1
917	863	1
1126	863	1
1082	863	1
1348	864	1
1198	864	1
1024	865	1
1446	866	1
1098	867	1
930	869	1
998	869	1
1277	869	1
1077	869	1
1296	869	1
1364	869	1
1246	870	1
1256	870	1
1141	871	1
1123	871	1
1215	871	1
1319	871	1
1483	873	1
1374	873	1
1464	874	1
1235	874	1
902	875	1
1245	876	1
896	879	1
1463	879	1
1376	879	1
1007	879	1
1255	879	1
1475	879	1
1215	879	1
926	879	1
1185	879	1
952	879	1
1011	879	1
1445	880	1
1352	881	1
959	881	1
1142	882	1
1416	882	1
1441	883	1
1159	883	1
1389	883	1
1458	883	1
1063	883	1
1315	885	1
917	885	1
1476	885	1
1291	887	1
992	887	1
1101	887	1
1270	888	1
1205	889	1
1337	891	1
1088	891	1
896	893	1
930	893	1
984	893	1
1120	893	1
1277	893	1
941	893	1
1036	893	1
1229	893	1
952	893	1
991	893	1
1012	893	1
1089	894	1
992	895	1
1120	896	1
1395	896	1
1256	896	1
952	896	1
1096	896	1
997	896	1
913	896	1
1510	897	1
1233	897	1
1113	897	1
1103	897	1
1288	898	1
1485	899	1
1044	900	1
946	900	1
1045	900	1
1245	900	1
1307	900	1
1514	900	1
912	901	1
1376	902	1
1370	903	1
1242	903	1
1321	904	1
1345	906	1
1262	906	1
907	906	1
949	906	1
1068	907	1
1293	908	1
1415	909	1
1164	909	1
1064	910	1
984	910	1
956	910	1
1173	911	1
1043	911	1
1416	913	1
1215	913	1
926	913	1
1229	913	1
1230	913	1
1452	914	1
1120	914	1
1138	914	1
1224	914	1
1249	916	1
1134	917	1
1228	917	1
1118	917	1
947	919	1
1293	919	1
1432	919	1
1482	919	1
1041	919	1
1250	921	1
1496	922	1
1148	922	1
1014	922	1
1491	922	1
977	922	1
1114	922	1
982	922	1
1471	922	1
1503	924	1
1098	924	1
1506	925	1
1512	925	1
1010	925	1
997	925	1
999	926	1
952	926	1
1059	927	1
1308	927	1
1518	928	1
1098	928	1
1211	929	1
1161	929	1
1395	930	1
1437	930	1
1505	931	1
1053	932	1
1377	933	1
1332	933	1
1137	934	1
1280	935	1
1251	936	1
1131	936	1
1112	937	1
1378	937	1
1114	937	1
998	939	1
1085	939	1
1063	939	1
1271	941	1
1445	943	1
1124	944	1
1365	944	1
1430	945	1
1449	945	1
1323	946	1
984	947	1
1289	947	1
1473	949	1
1262	949	1
1475	950	1
955	951	1
1416	951	1
1256	951	1
1195	952	1
955	952	1
998	952	1
1074	952	1
1007	952	1
1293	952	1
1285	952	1
965	952	1
1416	952	1
1379	952	1
1294	952	1
1001	952	1
1337	952	1
1468	952	1
1237	952	1
1483	952	1
1049	952	1
1229	952	1
1428	952	1
981	952	1
1409	952	1
1139	952	1
960	952	1
1011	952	1
1221	952	1
1227	953	1
1121	953	1
1214	953	1
1091	953	1
1059	954	1
1043	954	1
956	955	1
1023	955	1
1256	955	1
1221	955	1
1313	956	1
1015	956	1
1416	956	1
1337	956	1
1256	956	1
1201	956	1
1271	956	1
1105	957	1
1519	957	1
1404	959	1
1279	959	1
1268	959	1
1362	959	1
1074	960	1
1230	960	1
1050	961	1
1507	962	1
1052	962	1
1463	963	1
1255	964	1
993	965	1
1519	965	1
1321	965	1
1217	966	1
1174	966	1
1050	967	1
1321	968	1
1213	969	1
1509	969	1
1018	969	1
1074	970	1
1022	970	1
1323	970	1
1193	971	1
1415	972	1
1466	973	1
1321	973	1
1493	973	1
1411	973	1
1025	974	1
1339	975	1
1114	977	1
1147	978	1
1072	978	1
1254	981	1
1489	981	1
1475	981	1
1114	982	1
1090	983	1
1064	984	1
1462	984	1
1120	984	1
1385	984	1
1067	984	1
1316	984	1
1057	984	1
1041	984	1
1009	984	1
1036	984	1
1110	984	1
1352	984	1
1096	984	1
1039	984	1
1363	985	1
1508	987	1
1469	988	1
1300	988	1
1293	989	1
1504	990	1
1400	990	1
1057	992	1
1317	992	1
1193	992	1
1256	992	1
1154	992	1
1251	995	1
1105	995	1
1016	995	1
1220	995	1
1445	996	1
1395	998	1
1316	998	1
1416	998	1
1240	998	1
1139	998	1
1364	998	1
1033	999	1
1238	999	1
1102	999	1
1147	999	1
1109	1000	1
1194	1003	1
1455	1004	1
1053	1004	1
1517	1005	1
1495	1005	1
1042	1008	1
1512	1010	1
1317	1010	1
1223	1011	1
1216	1011	1
1147	1011	1
1120	1012	1
1273	1013	1
1206	1013	1
1112	1014	1
1374	1016	1
1339	1017	1
1098	1017	1
1300	1018	1
1163	1019	1
1322	1020	1
1316	1021	1
1173	1021	1
1157	1022	1
1048	1023	1
1242	1023	1
1051	1025	1
1164	1025	1
1451	1026	1
1221	1027	1
1291	1029	1
1430	1029	1
1307	1029	1
1228	1030	1
1272	1031	1
1376	1031	1
1337	1032	1
1301	1033	1
1453	1033	1
1376	1033	1
1507	1033	1
1304	1033	1
1124	1033	1
1171	1033	1
1496	1035	1
1281	1035	1
1064	1036	1
1120	1036	1
1147	1036	1
1072	1036	1
1203	1037	1
1067	1037	1
1341	1037	1
1293	1038	1
1288	1040	1
1519	1040	1
1289	1041	1
1447	1043	1
1323	1044	1
1190	1046	1
1414	1047	1
1468	1047	1
1323	1048	1
1445	1049	1
1225	1050	1
1467	1050	1
1342	1050	1
1122	1052	1
1494	1052	1
1455	1053	1
1304	1056	1
1203	1057	1
1067	1057	1
1113	1057	1
1110	1057	1
1133	1057	1
1213	1058	1
1067	1058	1
1313	1060	1
1117	1060	1
1324	1063	1
1175	1063	1
1125	1065	1
1340	1066	1
1343	1066	1
1203	1067	1
1195	1067	1
1120	1067	1
1385	1067	1
1110	1067	1
1341	1067	1
1235	1069	1
1073	1070	1
1294	1071	1
1120	1072	1
1416	1072	1
1138	1072	1
1505	1072	1
1147	1072	1
1472	1072	1
1202	1073	1
1357	1073	1
1514	1074	1
1256	1074	1
1405	1078	1
1112	1080	1
1378	1080	1
1120	1083	1
1307	1083	1
1224	1083	1
1291	1084	1
1430	1084	1
1213	1084	1
1183	1084	1
1469	1084	1
1339	1086	1
1156	1088	1
1158	1088	1
1258	1089	1
1293	1090	1
1294	1090	1
1445	1090	1
1121	1091	1
1397	1091	1
1502	1093	1
1278	1093	1
1391	1094	1
1125	1096	1
1230	1096	1
1312	1096	1
1180	1098	1
1303	1098	1
1520	1099	1
1186	1099	1
1291	1101	1
1463	1102	1
1510	1103	1
1231	1104	1
1431	1105	1
1192	1105	1
1474	1105	1
1395	1105	1
1137	1105	1
1484	1105	1
1229	1105	1
1361	1109	1
1179	1109	1
1385	1110	1
1385	1113	1
1497	1113	1
1488	1116	1
1351	1117	1
1506	1118	1
1293	1118	1
1215	1118	1
1137	1118	1
1514	1118	1
1445	1119	1
1385	1120	1
1334	1120	1
1382	1121	1
1141	1123	1
1299	1124	1
1376	1125	1
1515	1125	1
1415	1128	1
1370	1128	1
1283	1130	1
1193	1130	1
1172	1131	1
1399	1131	1
1459	1132	1
1203	1133	1
1385	1133	1
1344	1133	1
1209	1133	1
1315	1134	1
1476	1134	1
1463	1135	1
1157	1136	1
1404	1136	1
1362	1136	1
1453	1139	1
1316	1139	1
1416	1139	1
1294	1139	1
1256	1139	1
1416	1140	1
1255	1141	1
1371	1141	1
1372	1142	1
1373	1142	1
1380	1146	1
1238	1147	1
1239	1147	1
1334	1147	1
1322	1149	1
1293	1150	1
1263	1151	1
1386	1151	1
1323	1151	1
1426	1152	1
1262	1153	1
1396	1155	1
1436	1155	1
1508	1155	1
1228	1156	1
1351	1157	1
1323	1157	1
1324	1159	1
1175	1159	1
1378	1160	1
1513	1161	1
1290	1161	1
1255	1170	1
1371	1170	1
1462	1171	1
1376	1171	1
1260	1171	1
1299	1171	1
1365	1171	1
1379	1172	1
1228	1172	1
1316	1173	1
1217	1174	1
1389	1175	1
1458	1175	1
1215	1176	1
1339	1177	1
1323	1177	1
1375	1178	1
1249	1182	1
1250	1184	1
1416	1187	1
1229	1188	1
1334	1191	1
1370	1193	1
1220	1193	1
1323	1194	1
1416	1195	1
1435	1196	1
1502	1197	1
1278	1197	1
1225	1199	1
1467	1199	1
1342	1199	1
1277	1201	1
1513	1211	1
1446	1212	1
1280	1212	1
1469	1213	1
1255	1215	1
1371	1215	1
1469	1215	1
1393	1215	1
1488	1218	1
1390	1219	1
1259	1220	1
1294	1221	1
1256	1221	1
1261	1221	1
1328	1225	1
1356	1226	1
1499	1226	1
1501	1228	1
1299	1229	1
1256	1230	1
1353	1230	1
1488	1231	1
1441	1232	1
1510	1233	1
1445	1236	1
1505	1239	1
1293	1240	1
1364	1240	1
1452	1241	1
1402	1241	1
1407	1241	1
1457	1241	1
1381	1243	1
1374	1245	1
1444	1247	1
1429	1247	1
1275	1248	1
1453	1251	1
1423	1251	1
1322	1252	1
1371	1255	1
1450	1255	1
1285	1256	1
1416	1256	1
1287	1256	1
1372	1256	1
1379	1257	1
1329	1257	1
1301	1260	1
1370	1261	1
1345	1262	1
1473	1262	1
1446	1262	1
1514	1263	1
1339	1264	1
1402	1267	1
1416	1271	1
1294	1271	1
1488	1273	1
1298	1274	1
1395	1277	1
1437	1277	1
1502	1278	1
1374	1280	1
1303	1282	1
1381	1284	1
1365	1287	1
1432	1289	1
1434	1290	1
1430	1291	1
1430	1293	1
1328	1293	1
1330	1293	1
1372	1294	1
1337	1297	1
1301	1299	1
1376	1299	1
1304	1299	1
1365	1299	1
1376	1305	1
1406	1307	1
1416	1313	1
1351	1313	1
1372	1313	1
1463	1315	1
1367	1316	1
1338	1316	1
1353	1317	1
1488	1320	1
1339	1321	1
1383	1323	1
1385	1323	1
1386	1323	1
1441	1324	1
1389	1324	1
1458	1324	1
1340	1325	1
1461	1327	1
1482	1327	1
1487	1327	1
1467	1328	1
1342	1328	1
1409	1329	1
1400	1332	1
1370	1335	1
1380	1336	1
1416	1337	1
1505	1337	1
1394	1339	1
1431	1339	1
1384	1339	1
1456	1339	1
1417	1339	1
1411	1339	1
1343	1340	1
1470	1349	1
1368	1350	1
1447	1351	1
1387	1352	1
1425	1352	1
1460	1352	1
1505	1352	1
1383	1353	1
1499	1356	1
1475	1357	1
1432	1358	1
1420	1363	1
1452	1364	1
1376	1365	1
1403	1368	1
1433	1368	1
1415	1370	1
1498	1370	1
1373	1372	1
1483	1379	1
1409	1379	1
1421	1391	1
1414	1391	1
1420	1391	1
1473	1408	1
1483	1409	1
1498	1412	1
1434	1418	1
1443	1440	1
1497	1443	1
1490	1446	1
1457	1452	1
1483	1468	1
1509	1469	1
1490	1473	1
1516	1473	1
1489	1475	1
1491	1477	1
1511	1478	1
1517	1480	1
1516	1490	1